C:\GitProject\reportnino-master\ReportNino\assets\vendors\general\summernote\built\base\core\env.js
C:\GitProject\reportnino-master\ReportNino\assets\vendors\general\summernote\built\base\core\env.js.map
C:\GitProject\reportnino-master\ReportNino\assets\vendors\general\summernote\built\base\core\func.js
C:\GitProject\reportnino-master\ReportNino\assets\vendors\general\summernote\built\base\core\func.js.map
C:\GitProject\reportnino-master\ReportNino\assets\vendors\general\summernote\built\base\core\lists.js
C:\GitProject\reportnino-master\ReportNino\assets\vendors\general\summernote\built\base\core\lists.js.map
C:\GitProject\reportnino-master\ReportNino\assets\vendors\general\summernote\built\base\core\dom.js
C:\GitProject\reportnino-master\ReportNino\assets\vendors\general\summernote\built\base\core\dom.js.map
C:\GitProject\reportnino-master\ReportNino\assets\vendors\general\summernote\built\base\Context.js
C:\GitProject\reportnino-master\ReportNino\assets\vendors\general\summernote\built\base\Context.js.map
C:\GitProject\reportnino-master\ReportNino\assets\vendors\general\summernote\built\summernote.js
C:\GitProject\reportnino-master\ReportNino\assets\vendors\general\summernote\built\summernote.js.map
C:\GitProject\reportnino-master\ReportNino\assets\vendors\general\summernote\built\base\renderer.js
C:\GitProject\reportnino-master\ReportNino\assets\vendors\general\summernote\built\base\renderer.js.map
C:\GitProject\reportnino-master\ReportNino\assets\vendors\general\summernote\built\base\summernote-en-US.js
C:\GitProject\reportnino-master\ReportNino\assets\vendors\general\summernote\built\base\summernote-en-US.js.map
C:\GitProject\reportnino-master\ReportNino\assets\vendors\general\summernote\built\base\core\range.js
C:\GitProject\reportnino-master\ReportNino\assets\vendors\general\summernote\built\base\core\range.js.map
C:\GitProject\reportnino-master\ReportNino\assets\vendors\general\summernote\built\base\core\key.js
C:\GitProject\reportnino-master\ReportNino\assets\vendors\general\summernote\built\base\core\key.js.map
C:\GitProject\reportnino-master\ReportNino\assets\vendors\general\summernote\built\base\core\async.js
C:\GitProject\reportnino-master\ReportNino\assets\vendors\general\summernote\built\base\core\async.js.map
C:\GitProject\reportnino-master\ReportNino\assets\vendors\general\summernote\built\base\editing\History.js
C:\GitProject\reportnino-master\ReportNino\assets\vendors\general\summernote\built\base\editing\History.js.map
C:\GitProject\reportnino-master\ReportNino\assets\vendors\general\summernote\built\base\editing\Style.js
C:\GitProject\reportnino-master\ReportNino\assets\vendors\general\summernote\built\base\editing\Style.js.map
C:\GitProject\reportnino-master\ReportNino\assets\vendors\general\summernote\built\base\editing\Bullet.js
C:\GitProject\reportnino-master\ReportNino\assets\vendors\general\summernote\built\base\editing\Bullet.js.map
C:\GitProject\reportnino-master\ReportNino\assets\vendors\general\summernote\built\base\editing\Typing.js
C:\GitProject\reportnino-master\ReportNino\assets\vendors\general\summernote\built\base\editing\Typing.js.map
C:\GitProject\reportnino-master\ReportNino\assets\vendors\general\summernote\built\base\editing\Table.js
C:\GitProject\reportnino-master\ReportNino\assets\vendors\general\summernote\built\base\editing\Table.js.map
C:\GitProject\reportnino-master\ReportNino\assets\vendors\general\summernote\built\base\module\Editor.js
C:\GitProject\reportnino-master\ReportNino\assets\vendors\general\summernote\built\base\module\Editor.js.map
C:\GitProject\reportnino-master\ReportNino\assets\vendors\general\summernote\built\base\module\Clipboard.js
C:\GitProject\reportnino-master\ReportNino\assets\vendors\general\summernote\built\base\module\Clipboard.js.map
C:\GitProject\reportnino-master\ReportNino\assets\vendors\general\summernote\built\base\module\Dropzone.js
C:\GitProject\reportnino-master\ReportNino\assets\vendors\general\summernote\built\base\module\Dropzone.js.map
C:\GitProject\reportnino-master\ReportNino\assets\vendors\general\summernote\built\base\module\Codeview.js
C:\GitProject\reportnino-master\ReportNino\assets\vendors\general\summernote\built\base\module\Codeview.js.map
C:\GitProject\reportnino-master\ReportNino\assets\vendors\general\summernote\built\base\module\Statusbar.js
C:\GitProject\reportnino-master\ReportNino\assets\vendors\general\summernote\built\base\module\Statusbar.js.map
C:\GitProject\reportnino-master\ReportNino\assets\vendors\general\summernote\built\base\module\Fullscreen.js
C:\GitProject\reportnino-master\ReportNino\assets\vendors\general\summernote\built\base\module\Fullscreen.js.map
C:\GitProject\reportnino-master\ReportNino\assets\vendors\general\summernote\built\base\module\Handle.js
C:\GitProject\reportnino-master\ReportNino\assets\vendors\general\summernote\built\base\module\Handle.js.map
C:\GitProject\reportnino-master\ReportNino\assets\vendors\general\summernote\built\base\module\AutoLink.js
C:\GitProject\reportnino-master\ReportNino\assets\vendors\general\summernote\built\base\module\AutoLink.js.map
C:\GitProject\reportnino-master\ReportNino\assets\vendors\general\summernote\built\base\module\AutoSync.js
C:\GitProject\reportnino-master\ReportNino\assets\vendors\general\summernote\built\base\module\AutoSync.js.map
C:\GitProject\reportnino-master\ReportNino\assets\vendors\general\summernote\built\base\module\AutoReplace.js
C:\GitProject\reportnino-master\ReportNino\assets\vendors\general\summernote\built\base\module\AutoReplace.js.map
C:\GitProject\reportnino-master\ReportNino\assets\vendors\general\summernote\built\base\module\Placeholder.js
C:\GitProject\reportnino-master\ReportNino\assets\vendors\general\summernote\built\base\module\Placeholder.js.map
C:\GitProject\reportnino-master\ReportNino\assets\vendors\general\summernote\built\base\module\Buttons.js
C:\GitProject\reportnino-master\ReportNino\assets\vendors\general\summernote\built\base\module\Buttons.js.map
C:\GitProject\reportnino-master\ReportNino\assets\vendors\general\summernote\built\base\module\Toolbar.js
C:\GitProject\reportnino-master\ReportNino\assets\vendors\general\summernote\built\base\module\Toolbar.js.map
C:\GitProject\reportnino-master\ReportNino\assets\vendors\general\summernote\built\base\module\LinkDialog.js
C:\GitProject\reportnino-master\ReportNino\assets\vendors\general\summernote\built\base\module\LinkDialog.js.map
C:\GitProject\reportnino-master\ReportNino\assets\vendors\general\summernote\built\base\module\LinkPopover.js
C:\GitProject\reportnino-master\ReportNino\assets\vendors\general\summernote\built\base\module\LinkPopover.js.map
C:\GitProject\reportnino-master\ReportNino\assets\vendors\general\summernote\built\base\module\ImageDialog.js
C:\GitProject\reportnino-master\ReportNino\assets\vendors\general\summernote\built\base\module\ImageDialog.js.map
C:\GitProject\reportnino-master\ReportNino\assets\vendors\general\summernote\built\base\module\ImagePopover.js
C:\GitProject\reportnino-master\ReportNino\assets\vendors\general\summernote\built\base\module\ImagePopover.js.map
C:\GitProject\reportnino-master\ReportNino\assets\vendors\general\summernote\built\base\module\TablePopover.js
C:\GitProject\reportnino-master\ReportNino\assets\vendors\general\summernote\built\base\module\TablePopover.js.map
C:\GitProject\reportnino-master\ReportNino\assets\vendors\general\summernote\built\base\module\VideoDialog.js
C:\GitProject\reportnino-master\ReportNino\assets\vendors\general\summernote\built\base\module\VideoDialog.js.map
C:\GitProject\reportnino-master\ReportNino\assets\vendors\general\summernote\built\base\module\HelpDialog.js
C:\GitProject\reportnino-master\ReportNino\assets\vendors\general\summernote\built\base\module\HelpDialog.js.map
C:\GitProject\reportnino-master\ReportNino\assets\vendors\general\summernote\built\base\module\AirPopover.js
C:\GitProject\reportnino-master\ReportNino\assets\vendors\general\summernote\built\base\module\AirPopover.js.map
C:\GitProject\reportnino-master\ReportNino\assets\vendors\general\summernote\built\base\module\HintPopover.js
C:\GitProject\reportnino-master\ReportNino\assets\vendors\general\summernote\built\base\module\HintPopover.js.map
C:\GitProject\reportnino-master\ReportNino\assets\vendors\general\summernote\built\base\settings.js
C:\GitProject\reportnino-master\ReportNino\assets\vendors\general\summernote\built\base\settings.js.map
C:\GitProject\reportnino-master\ReportNino\assets\vendors\general\summernote\built\bs3\ui.js
C:\GitProject\reportnino-master\ReportNino\assets\vendors\general\summernote\built\bs3\ui.js.map
C:\GitProject\reportnino-master\ReportNino\assets\vendors\general\summernote\built\bs3\settings.js
C:\GitProject\reportnino-master\ReportNino\assets\vendors\general\summernote\built\bs3\settings.js.map
C:\GitProject\reportnino-master\ReportNino\assets\vendors\general\summernote\built\bs4\ui.js
C:\GitProject\reportnino-master\ReportNino\assets\vendors\general\summernote\built\bs4\ui.js.map
C:\GitProject\reportnino-master\ReportNino\assets\vendors\general\summernote\built\bs4\settings.js
C:\GitProject\reportnino-master\ReportNino\assets\vendors\general\summernote\built\bs4\settings.js.map
C:\GitProject\reportnino-master\ReportNino\assets\vendors\general\summernote\built\lite\ui\TooltipUI.js
C:\GitProject\reportnino-master\ReportNino\assets\vendors\general\summernote\built\lite\ui\TooltipUI.js.map
C:\GitProject\reportnino-master\ReportNino\assets\vendors\general\summernote\built\lite\ui\DropdownUI.js
C:\GitProject\reportnino-master\ReportNino\assets\vendors\general\summernote\built\lite\ui\DropdownUI.js.map
C:\GitProject\reportnino-master\ReportNino\assets\vendors\general\summernote\built\lite\ui\ModalUI.js
C:\GitProject\reportnino-master\ReportNino\assets\vendors\general\summernote\built\lite\ui\ModalUI.js.map
C:\GitProject\reportnino-master\ReportNino\assets\vendors\general\summernote\built\lite\ui.js
C:\GitProject\reportnino-master\ReportNino\assets\vendors\general\summernote\built\lite\ui.js.map
C:\GitProject\reportnino-master\ReportNino\assets\vendors\general\summernote\built\lite\settings.js
C:\GitProject\reportnino-master\ReportNino\assets\vendors\general\summernote\built\lite\settings.js.map
C:\GitProject\reportnino-master\ReportNino\assets\vendors\general\summernote\built\lite\ui\PopoverUI.js
C:\GitProject\reportnino-master\ReportNino\assets\vendors\general\summernote\built\lite\ui\PopoverUI.js.map
