MA-FA-W-DEB-LP-1005002
MA-FA-W-DEB-LP-1005003
MA-FA-W-DEB-LP-1005008
MA-FA-W-DEB-LP-1006033
MA-FA-W-DEB-LP-1006034
MA-FA-W-DEB-LP-1006035
MA-FA-W-DEB-LP-1008100
MA-FA-W-DEB-LP-1008169
MA-FA-W-DEB-LP-1104285
MA-FA-W-DEF-LP-1008099
MA-FA-W-DRB-SS-1104135
MA-FA-W-DRF-NS-1009049
MA-FA-W-DRF-NS-1104234
MA-FA-W-DRF-NS-1108008
MA-FA-W-DRF-SS-1007001
MA-FA-W-DRF-SS-1103107
MA-FA-W-DRF-SS-1104235
MA-FA-W-DRF-SS-1105009
MA-FA-W-DRF-SS-1105013
MA-FA-W-DRF-SS-1108007
MA-FA-W-JAE-LS-1105004
MA-FA-W-JAI-LS-1007039
MA-FA-W-NDB-LP-1005054
MA-FA-W-NDB-LP-1104127
MA-FA-W-POS-SS-1006045
MA-FA-W-SCF-AC-1108035
MA-FA-W-SHB-LS-1006042
MA-FA-W-SHB-LS-1007034
MA-FA-W-SHB-LS-1007044
MA-FA-W-SHB-LS-1007046
MA-FA-W-SHB-LS-1008081
MA-FA-W-SHB-MS-1006125
MA-FA-W-SHB-MS-1103262
MA-FA-W-SHB-SS-1009186
MA-FA-W-SHF-LS-1004016
MA-FA-W-SHF-LS-1004017
MA-FA-W-SHF-LS-1004018
MA-FA-W-SHF-LS-1005041
MA-FA-W-SHF-LS-1005048
MA-FA-W-SHF-LS-1006038
MA-FA-W-SHF-LS-1006099
MA-FA-W-SHF-LS-1006102
MA-FA-W-SHF-LS-1006117
MA-FA-W-SHF-LS-1007045
MA-FA-W-SHF-LS-1010186
MA-FA-W-SHF-MS-1008080
MA-FA-W-SHF-MS-1008240
MA-FA-W-SHF-MS-1010200
MA-FA-W-SHF-NS-1006148
MA-FA-W-SHF-NS-1008092
MA-FA-W-SHF-NS-1008250
MA-FA-W-SHF-NS-1103105
MA-FA-W-SHF-NS-1103137
MA-FA-W-SHF-SS-1005040
MA-FA-W-SHF-SS-1005049
MA-FA-W-SHF-SS-1006037
MA-FA-W-SHF-SS-1006040
MA-FA-W-SHF-SS-1006119
MA-FA-W-SHF-SS-1007035
MA-FA-W-SHF-SS-1008118
MA-FA-W-SHF-SS-1008241
MA-FA-W-SHF-SS-1009016
MA-FA-W-SHF-SS-1009196
MA-FA-W-SHF-SS-1010032
MA-FA-W-SHF-SS-1103025
MA-FA-W-SHF-SS-1103242
MA-FA-W-SHF-SS-1104089
MA-FA-W-SHP-LS-1104084
MA-FA-W-SHP-LS-1104091
MA-FA-W-SHS-LS-1006039
MA-FA-W-SHS-LS-1006118
MA-FA-W-SKF-SK-1005056
MA-FA-W-SOB-SP-1104227
MA-FA-W-SOB-SP-1104228
MA-FA-W-SOB-SP-1106401
MA-FA-W-TSB-LS-1101026
MA-FA-W-TSB-LS-1106157
MA-FA-W-TSB-MS-1008002
MA-FA-W-TSB-NS-1105058
MA-FA-W-TSB-NS-1105060
MA-FA-W-TSF-LS-1103324
MA-FA-W-TSF-MS-1007038
MA-FA-W-TSF-NS-1008227
MA-FA-W-TSF-SS-1006145
MA-FA-W-TSF-SS-1103325
MA-FA-W-TSF-SS-1106165
MA-FA-W-TSF-SS-1205084
MA-FA-W-TSG-LS-1006144
MA-FA-W-TSG-SS-1006126
MA-FA-W-TSG-SS-1006128
MA-FA-W-TSG-SS-1006130
MA-FA-W-TSG-SS-1006135
MA-FA-W-TSG-SS-1006136
MA-FA-W-TSG-SS-1006137
MA-FA-W-TSG-SS-1006138
MA-FA-W-TSG-SS-1006141
MA-FA-W-TSG-SS-1006143
MA-FE-W-BAF-AC-1110260
MA-FE-W-BAF-AC-1110261
MA-FE-W-BAF-AC-1110262
MA-FE-W-BLF-AC-1011101
MA-FE-W-BLF-AC-1012349
MA-FE-W-BLF-AC-1012351
MA-FE-W-BLF-AC-1012352
MA-FE-W-BLF-AC-1012353
MA-FE-W-BLF-AC-1012354
MA-FE-W-DEB-LP-1008124
MA-FE-W-DEB-LP-1009007
MA-FE-W-DEB-LP-1009045
MA-FE-W-DEB-LP-1010094
MA-FE-W-DEB-LP-1010096
MA-FE-W-DEB-LP-1108025
MA-FE-W-DRB-SS-1009014
MA-FE-W-DRB-SS-1010208
MA-FE-W-DRF-MS-1108496
MA-FE-W-DRF-MS-1108498
MA-FE-W-DRF-MS-1109219
MA-FE-W-DRF-MS-1109221
MA-FE-W-DRF-MS-1206081
MA-FE-W-DRF-NS-1009050
MA-FE-W-DRF-NS-1011016
MA-FE-W-DRF-NS-1108497
MA-FE-W-DRF-NS-1109220
MA-FE-W-DRF-NS-1109223
MA-FE-W-DRF-NS-1109256
MA-FE-W-DRF-NS-1109257
MA-FE-W-DRF-NS-1111025
MA-FE-W-DRF-SS-1011322
MA-FE-W-DRF-SS-1109222
MA-FE-W-DRF-SS-1110245
MA-FE-W-DRF-SS-1111026
MA-FE-W-JAB-MS-1009068
MA-FE-W-JAF-LS-1007030
MA-FE-W-JAF-NS-1010459
MA-FE-W-JAF-SS-1009065
MA-FE-W-JAO-LS-1010259
MA-FE-W-JAW-LS-1106020
MA-FE-W-JAW-LS-1106024
MA-FE-W-NDB-LP-1008244
MA-FE-W-NDF-LP-1010230
MA-FE-W-NDF-LP-1010262
MA-FE-W-NDF-LP-1012005
MA-FE-W-POB-SS-1005047
MA-FE-W-POB-SS-1006048
MA-FE-W-POF-SS-1005046
MA-FE-W-POS-SS-1006043
MA-FE-W-POS-SS-1006044
MA-FE-W-POS-SS-1006047
MA-FE-W-SHB-LS-1008177
MA-FE-W-SHB-LS-1008178
MA-FE-W-SHB-LS-1111024
MA-FE-W-SHF-LS-1007012
MA-FE-W-SHF-LS-1009058
MA-FE-W-SHF-LS-1104242
MA-FE-W-SHF-LS-1109112
MA-FE-W-SHF-LS-1109225
MA-FE-W-SHF-LS-1110008
MA-FE-W-SHF-MS-1007007
MA-FE-W-SHF-MS-1007008
MA-FE-W-SHF-MS-1007009
MA-FE-W-SHF-MS-1007037
MA-FE-W-SHF-MS-1009060
MA-FE-W-SHF-MS-1009061
MA-FE-W-SHF-MS-1010031
MA-FE-W-SHF-MS-1104238
MA-FE-W-SHF-MS-1108492
MA-FE-W-SHF-MS-1108495
MA-FE-W-SHF-MS-1109230
MA-FE-W-SHF-MS-1111019
MA-FE-W-SHF-NS-1009187
MA-FE-W-SHF-NS-1104237
MA-FE-W-SHF-NS-1109114
MA-FE-W-SHF-SS-1007047
MA-FE-W-SHF-SS-1009159
MA-FE-W-SHF-SS-1009194
MA-FE-W-SHF-SS-1009197
MA-FE-W-SHF-SS-1010115
MA-FE-W-SHF-SS-1104240
MA-FE-W-SHS-LS-1007011
MA-FE-W-SHS-LS-1007014
MA-FE-W-SHS-LS-1007015
MA-FE-W-SHS-LS-1008142
MA-FE-W-SKB-SK-1009047
MA-FE-W-SKF-SK-1108499
MA-FE-W-SUF-LS-1010238
MA-FE-W-SWF-SS-1009073
MA-FE-W-TSB-LS-1008243
MA-FE-W-TSB-LS-1010394
MA-FE-W-TSB-LS-1010395
MA-FE-W-TSB-LS-1010396
MA-FE-W-TSB-LS-1011050
MA-FE-W-TSB-LS-1011051
MA-FE-W-TSB-LS-1011054
MA-FE-W-TSB-LS-1109138
MA-FE-W-TSB-MS-1011052
MA-FE-W-TSB-SS-1006050
MA-FE-W-TSB-SS-1006051
MA-FE-W-TSB-SS-1009253
MA-FE-W-TSB-SS-1010397
MA-FE-W-TSF-LS-1009077
MA-FE-W-TSF-LS-1009079
MA-FE-W-TSF-LS-1010219
MA-FE-W-TSF-LS-1012182
MA-FE-W-TSF-LS-1108489
MA-FE-W-TSF-LS-1108494
MA-FE-W-TSF-LS-1109232
MA-FE-W-TSF-MS-1009078
MA-FE-W-TSF-MS-1106412
MA-FE-W-TSF-MS-1108490
MA-FE-W-TSF-MS-1109039
MA-FE-W-TSF-MS-1109237
MA-FE-W-TSF-MS-1109241
MA-FE-W-TSF-NS-1106035
MA-FE-W-TSF-SS-1009207
MA-FE-W-TSF-SS-1010213
MA-FE-W-TSF-SS-1010216
MA-FE-W-TSF-SS-1011017
MA-FE-W-TSF-SS-1106034
MA-FE-W-TSF-SS-1108011
MA-FE-W-TSF-SS-1108012
MA-FE-W-TSF-SS-1108280
MA-FE-W-TSF-SS-1108282
MA-FE-W-TSF-SS-1108493
MA-FE-W-TSF-SS-1109038
MA-FE-W-TSF-SS-1109040
MA-FE-W-TSF-SS-1109122
MA-FE-W-TSF-SS-1109231
MA-FE-W-TSF-SS-1109235
MA-FE-W-TSF-SS-1109242
MA-FE-W-TSF-SS-1110321
MA-FF-W-TSF-SS-1203107
MA-SS-W-DRF-MS-1112046
MA-SS-W-JAS-LS-1112201
MA-SS-W-JAS-LS-1203056
MA-SS-W-SHF-MS-1112183
MA-SS-W-SHF-SS-1112180
MA-SS-W-SHF-SS-1112185
MA-SS-W-TSF-MS-1112167
MA-SS-W-TSF-MS-1112172
MA-SS-W-TSF-MS-1112198
MA-SS-W-TSF-MS-1203105
MA-SS-W-TSF-NS-1112051
MA-SS-W-TSF-SS-1112050
MA-SS-W-TSF-SS-1112052
MA-SS-W-TSF-SS-1112149
MA-SS-W-TSF-SS-1202069
MA-SS-W-TSF-SS-1203103
MA-SU-W-BLF-AC-1104166
MA-SU-W-BLF-AC-1104167
MA-SU-W-BLF-AC-1104168
MA-SU-W-BLF-AC-1104170
MA-SU-W-BLF-AC-1104171
MA-SU-W-BLF-AC-1104172
MA-SU-W-BLF-AC-1104173
MA-SU-W-DEB-LP-1009239
MA-SU-W-DEB-LP-1010093
MA-SU-W-DEB-LP-1010095
MA-SU-W-DEB-LP-1011024
MA-SU-W-DEB-LP-1011025
MA-SU-W-DRB-NS-1101132
MA-SU-W-DRB-SS-1012170
MA-SU-W-DRB-SS-1101135
MA-SU-W-DRF-NS-1011308
MA-SU-W-DRF-NS-1101127
MA-SU-W-DRF-SS-1102143
MA-SU-W-DRF-SS-1102145
MA-SU-W-JAB-LS-1011087
MA-SU-W-JAF-LS-1101123
MA-SU-W-JAF-LS-1104022
MA-SU-W-JAF-LS-1104029
MA-SU-W-JAF-SS-1104021
MA-SU-W-NDB-LP-1011082
MA-SU-W-NDB-LP-1011083
MA-SU-W-NDB-LP-1012292
MA-SU-W-NDB-LP-1104121
MA-SU-W-NDB-LP-1104122
MA-SU-W-SHB-LS-1010272
MA-SU-W-SHB-LS-1101078
MA-SU-W-SHB-NS-1012166
MA-SU-W-SHB-NS-1101079
MA-SU-W-SHB-SS-1101138
MA-SU-W-SHF-LS 1003004
MA-SU-W-SHF-LS-1008226
MA-SU-W-SHF-LS-1010165
MA-SU-W-SHF-LS-1010273
MA-SU-W-SHF-MS-1007036
MA-SU-W-SHF-MS-1008224
MA-SU-W-SHF-MS-1008230
MA-SU-W-SHF-MS-1011010
MA-SU-W-SHF-MS-1011012
MA-SU-W-SHF-MS-1012167
MA-SU-W-SHF-MS-1012176
MA-SU-W-SHF-MS-1101146
MA-SU-W-SHF-MS-1101150
MA-SU-W-SHF-NS-1009188
MA-SU-W-SHF-NS-1010211
MA-SU-W-SHF-NS-1011305
MA-SU-W-SHF-NS-1101087
MA-SU-W-SHF-NS-1102093
MA-SU-W-SHF-SS-1008225
MA-SU-W-SHF-SS-1009046
MA-SU-W-SHF-SS-1010166
MA-SU-W-SHF-SS-1011008
MA-SU-W-SHF-SS-1011009
MA-SU-W-SHF-SS-1011185
MA-SU-W-SHF-SS-1011282
MA-SU-W-SHF-SS-1011306
MA-SU-W-SHF-SS-1012169
MA-SU-W-SHF-SS-1012293
MA-SU-W-SHF-SS-1101076
MA-SU-W-SHF-SS-1101080
MA-SU-W-SHF-SS-1101088
MA-SU-W-SHF-SS-1101145
MA-SU-W-SHF-SS-1101147
MA-SU-W-SHF-SS-1101151
MA-SU-W-SHF-SS-1103259
MA-SU-W-SHF-SS-1103269
MA-SU-W-SHS-LS-1004013
MA-SU-W-SKB-SK-1011205
MA-SU-W-SOB-SP-1010026
MA-SU-W-SOB-SP-1101075
MA-SU-W-SOB-SP-1101083
MA-SU-W-SOB-SP-1101124
MA-SU-W-SOB-SP-1101134
MA-SU-W-SOB-SP-1103248
MA-SU-W-SOF-SP-1010027
MA-SU-W-SOF-SP-1102084
MA-SU-W-SOF-SS-1011002
MA-SU-W-SOS-SP-1012001
MA-SU-W-SOS-SP-1101163
MA-SU-W-TSB-NS-1103133
MA-SU-W-TSB-NS-1103134
MA-SU-W-TSB-NS-1103135
MA-SU-W-TSF-LS-1104027
MA-SU-W-TSF-MS-1010281
MA-SU-W-TSF-NS-1104017
MA-SU-W-TSF-SS-1011224
MA-SU-W-TSF-SS-1101152
MA-SU-W-TSF-SS-1101153
MA-SU-W-TSF-SS-1103201
MA-SU-W-TSF-SS-1105006
MA-SU-W-TSG-MS-1010280
MA-SU-W-TSG-SS-1008198
MA-SU-W-TSG-SS-1008199
MA-SU-W-TSG-SS-1008200
MA-SU-W-TSG-SS-1008202
MA-SU-W-TSG-SS-1008206
MA-SU-W-TSG-SS-1008208
MA-SU-W-TSG-SS-1008212
MA-SU-W-TSG-SS-1008214
MA-SU-W-TSG-SS-1008215
MA-SU-W-TSG-SS-1008217
MA-SU-W-TSG-SS-1008218
MA-SU-W-TSG-SS-1010285
MA-SU-W-TSG-SS-1010286
MA-SU-W-TSS-SS-1103209
NI-FA-W-BAF-AC-1105042
NI-FA-W-BAF-AC-1105043
NI-FA-W-BAF-TO-2008001
NI-FA-W-BAF-TO-2008002
NI-FA-W-BAF-TO-2008003
NI-FA-W-CAF-CP-1104099
NI-FA-W-DEB-LP-1004095
NI-FA-W-DEB-LP-1004096
NI-FA-W-DEB-LP-1004097
NI-FA-W-DEB-LP-1006164
NI-FA-W-DEB-LP-1807134
NI-FA-W-DEB-LP-1903133
NI-FA-W-DEB-LP-1904039
NI-FA-W-DEB-LP-1905181
NI-FA-W-DEB-LP-1905185
NI-FA-W-DEB-LP-1907001
NI-FA-W-DEB-LP-1907002
NI-FA-W-DEB-LP-1909008
NI-FA-W-DEF-LP-1004068
NI-FA-W-DEF-LP-1004093
NI-FA-W-DEF-LP-1005061
NI-FA-W-DEF-LP-1103214
NI-FA-W-DEF-LP-1104062
NI-FA-W-DEF-LP-1104063
NI-FA-W-DEF-LP-1104064
NI-FA-W-DEF-LP-1808007
NI-FA-W-DEF-LP-1903081
NI-FA-W-DEF-LP-1903082
NI-FA-W-DEF-LP-1903098
NI-FA-W-DEF-LP-1904024
NI-FA-W-DEF-LP-1904025
NI-FA-W-DEF-LP-1904038
NI-FA-W-DEF-LP-1905183
NI-FA-W-DEF-LP-1905199
NI-FA-W-DEF-LP-1907003
NI-FA-W-DEF-LP-1907004
NI-FA-W-DEF-LP-1907005
NI-FA-W-DEF-LP-1907104
NI-FA-W-DRD-LS-1904053
NI-FA-W-DRD-LS-1905176
NI-FA-W-DRD-LS-1905177
NI-FA-W-DRD-LS-1906049
NI-FA-W-DRD-NS-1105175
NI-FA-W-DRD-NS-1906070
NI-FA-W-DRD-NS-2008026
NI-FA-W-DRF-LS-1905171
NI-FA-W-DRF-MS-1012237
NI-FA-W-DRF-NS-1006091
NI-FA-W-DRF-NS-1006146
NI-FA-W-DRF-NS-1101228
NI-FA-W-DRF-NS-1102002
NI-FA-W-DRF-NS-1102127
NI-FA-W-DRF-NS-1102128
NI-FA-W-DRF-NS-1102131
NI-FA-W-DRF-NS-1103199
NI-FA-W-DRF-NS-1103253
NI-FA-W-DRF-NS-1103254
NI-FA-W-DRF-NS-1103335
NI-FA-W-DRF-NS-1805098
NI-FA-W-DRF-SS-1005080
NI-FA-W-DRF-SS-1101230
NI-FA-W-DRF-SS-1102140
NI-FA-W-DRF-SS-1905175
NI-FA-W-DRF-SS-1910118
NI-FA-W-JAB-LS-1105108
NI-FA-W-JAB-LS-1105109
NI-FA-W-JAF-LS-1005025
NI-FA-W-JAF-LS-1005026
NI-FA-W-JAF-LS-1005068
NI-FA-W-JAF-LS-1105170
NI-FA-W-JAF-LS-1805123
NI-FA-W-JAF-LS-1808027
NI-FA-W-JAF-LS-1909021
NI-FA-W-JAF-MS-1006084
NI-FA-W-JAF-NS-1006170
NI-FA-W-JAF-NS-1102001
NI-FA-W-JAF-NS-1102141
NI-FA-W-JAF-NS-1103326
NI-FA-W-JAF-NS-1105169
NI-FA-W-JAO-LS-1004034
NI-FA-W-JAO-NS-1005044
NI-FA-W-JAP-LS-1904060
NI-FA-W-JAP-LS-1905103
NI-FA-W-JAP-LS-1905104
NI-FA-W-JAP-LS-1905105
NI-FA-W-JAP-LS-2006010
NI-FA-W-JAP-LS-2007044
NI-FA-W-JAS-LS-1907137
NI-FA-W-JAS-LS-1909009
NI-FA-W-JAS-LS-2007048
NI-FA-W-JAS-LS-2008028
NI-FA-W-JUD-SS-2008027
NI-FA-W-NDF-LP-1005050
NI-FA-W-NDF-LP-1007174
NI-FA-W-NDS-LP-1907134
NI-FA-W-NDS-LP-1907136
NI-FA-W-NDS-LP-1907138
NI-FA-W-NDS-LP-1909010
NI-FA-W-NDS-LP-1909012
NI-FA-W-NDS-LP-2007047
NI-FA-W-NDS-LP-2007049
NI-FA-W-SCF-AC-1108043
NI-FA-W-SCF-AC-1108049
NI-FA-W-SCF-AC-1108051
NI-FA-W-SEF-LF-2104118
NI-FA-W-SEF-LF-2104119
NI-FA-W-SEF-LF-2104120
NI-FA-W-SHB-LS-1101184
NI-FA-W-SHB-LS-1103300
NI-FA-W-SHB-LS-1909004
NI-FA-W-SHF-LS-1005070
NI-FA-W-SHF-LS-1005071
NI-FA-W-SHF-LS-1005077
NI-FA-W-SHF-LS-1006083
NI-FA-W-SHF-LS-1006203
NI-FA-W-SHF-LS-1011036
NI-FA-W-SHF-LS-1101203
NI-FA-W-SHF-LS-1103235
NI-FA-W-SHF-LS-1606104
NI-FA-W-SHF-LS-1809009
NI-FA-W-SHF-LS-1906025
NI-FA-W-SHF-LS-1906064
NI-FA-W-SHF-LS-1907008
NI-FA-W-SHF-LS-1907043
NI-FA-W-SHF-LS-1907055
NI-FA-W-SHF-LS-1907091
NI-FA-W-SHF-LS-1907094
NI-FA-W-SHF-LS-1907130
NI-FA-W-SHF-LS-1907131
NI-FA-W-SHF-LS-1907140
NI-FA-W-SHF-LS-1908041
NI-FA-W-SHF-LS-1909003
NI-FA-W-SHF-LS-1909005
NI-FA-W-SHF-LS-1909006
NI-FA-W-SHF-LS-1910152
NI-FA-W-SHF-MS-1006201
NI-FA-W-SHF-MS-1006217
NI-FA-W-SHF-MS-1202195
NI-FA-W-SHF-MS-1206149
NI-FA-W-SHF-MS-1606053
NI-FA-W-SHF-MS-1907054
NI-FA-W-SHF-NS-1004022
NI-FA-W-SHF-NS-1004120
NI-FA-W-SHF-NS-1005072
NI-FA-W-SHF-NS-1005076
NI-FA-W-SHF-NS-1101189
NI-FA-W-SHF-NS-1103334
NI-FA-W-SHF-NS-1906040
NI-FA-W-SHF-SS-1101110
NI-FA-W-SHF-SS-1103229
NI-FA-W-SHF-SS-1907128
NI-FA-W-SHF-SS-1909002
NI-FA-W-SHP-LS-2010021
NI-FA-W-SHP-LS-2010024
NI-FA-W-SHS-LS-1006148
NI-FA-W-SHS-LS-1006200
NI-FA-W-SHS-LS-1006207
NI-FA-W-SHS-LS-1103198
NI-FA-W-SHS-LS-1104034
NI-FA-W-SHS-LS-1906024
NI-FA-W-SHS-LS-1907009
NI-FA-W-SHS-LS-1908063
NI-FA-W-SHS-LS-2010027
NI-FA-W-SHS-MS-1906026
NI-FA-W-SHS-SS-1809003
NI-FA-W-SHS-SS-1908062
NI-FA-W-SKD-MK-1905178
NI-FA-W-SKD-MK-1905227
NI-FA-W-SKD-SK-1905020
NI-FA-W-SKD-SK-1905226
NI-FA-W-SKF-MK-1102092
NI-FA-W-SKF-MK-1102121
NI-FA-W-SKF-SK-1006087
NI-FA-W-SKF-SK-1006090
NI-FA-W-SKF-SK-1102120
NI-FA-W-SKF-SK-1102123
NI-FA-W-SKO-SK-1006225
NI-FA-W-SKS-SK-1105027
NI-FA-W-SOD-CP-1905023
NI-FA-W-SOD-SP-1904023
NI-FA-W-SOD-SP-1904047
NI-FA-W-SOD-SP-1905021
NI-FA-W-SOD-SP-1905182
NI-FA-W-SOD-SP-1907040
NI-FA-W-SOD-SP-1907041
NI-FA-W-SOF-SP-1006223
NI-FA-W-SOF-SP-1103128
NI-FA-W-SOF-SP-1103232
NI-FA-W-SOF-SP-1103307
NI-FA-W-SOF-SP-1105105
NI-FA-W-SOF-SP-1206122
NI-FA-W-SOK-SP-1907092
NI-FA-W-TSB-LS-1106040
NI-FA-W-TSB-LS-1106043
NI-FA-W-TSB-LS-1106045
NI-FA-W-TSB-LS-1106047
NI-FA-W-TSB-LS-1106048
NI-FA-W-TSB-SS-1807096
NI-FA-W-TSB-SS-1807097
NI-FA-W-TSF-LS-1907139
NI-FA-W-TSF-LS-1908043
NI-FA-W-TSF-LS-1908044
NI-FA-W-TSF-LS-1908059
NI-FA-W-TSF-LS-1908060
NI-FA-W-TSF-LS-1908061
NI-FA-W-TSF-LS-1909056
NI-FA-W-TSF-NS-1005067
NI-FA-W-TSF-NS-1005121
NI-FA-W-TSF-NS-1005122
NI-FA-W-TSF-NS-1006162
NI-FA-W-TSF-NS-1101188
NI-FA-W-TSF-SS-1006150
NI-FA-W-TSF-SS-1006154
NI-FA-W-TSF-SS-1006157
NI-FA-W-TSF-SS-1006159
NI-FA-W-TSF-SS-1010342
NI-FA-W-TSF-SS-1010345
NI-FA-W-TSF-SS-1010359
NI-FA-W-TSF-SS-1010364
NI-FA-W-TSF-SS-1205010
NI-FA-W-TSF-SS-1205142
NI-FA-W-TSF-SS-1205144
NI-FA-W-TSF-SS-1205145
NI-FA-W-TSF-SS-1205152
NI-FA-W-TSF-SS-1810021
NI-FA-W-TSG-LS-1005105
NI-FA-W-TSG-LS-1010128
NI-FA-W-TSG-LS-1010129
NI-FA-W-TSG-LS-1010130
NI-FA-W-TSG-LS-1010132
NI-FA-W-TSG-LS-1010133
NI-FA-W-TSG-LS-1010134
NI-FA-W-TSG-LS-1010135
NI-FA-W-TSG-LS-1010137
NI-FA-W-TSG-LS-1010138
NI-FA-W-TSG-LS-1010139
NI-FA-W-TSG-LS-1010140
NI-FA-W-TSG-LS-1010141
NI-FA-W-TSG-LS-1010142
NI-FA-W-TSG-LS-1010144
NI-FA-W-TSG-LS-1010145
NI-FA-W-TSG-LS-1010147
NI-FA-W-TSG-LS-1010149
NI-FA-W-TSG-LS-1010150
NI-FA-W-TSG-LS-1010151
NI-FA-W-TSG-LS-1010153
NI-FA-W-TSG-LS-1010154
NI-FA-W-TSG-LS-2010004
NI-FA-W-TSG-NS-1005120
NI-FA-W-TSG-NS-1010334
NI-FA-W-TSG-NS-1010337
NI-FA-W-TSG-NS-1011030
NI-FA-W-TSG-SS-1005111
NI-FA-W-TSG-SS-1005116
NI-FA-W-TSG-SS-1005117
NI-FA-W-TSG-SS-1005118
NI-FA-W-TSG-SS-1010348
NI-FA-W-TSG-SS-1010353
NI-FA-W-TSG-SS-1010354
NI-FA-W-TSG-SS-1010355
NI-FA-W-TSG-SS-1010356
NI-FA-W-TSG-SS-1010358
NI-FA-W-TSG-SS-1010360
NI-FA-W-TSG-SS-1010362
NI-FA-W-TSG-SS-1010363
NI-FA-W-TSG-SS-1010365
NI-FA-W-TSG-SS-1010366
NI-FA-W-TSG-SS-1011029
NI-FA-W-TSG-SS-1102036
NI-FA-W-TSG-SS-1205012
NI-FA-W-TSG-SS-1205132
NI-FA-W-TSG-SS-1205140
NI-FA-W-TSG-SS-1604004
NI-FA-W-TSG-SS-1607004
NI-FA-W-TSG-SS-1607006
NI-FA-W-TSG-SS-1607012
NI-FA-W-TSG-SS-1809034
NI-FA-W-TSG-SS-1809035
NI-FA-W-TSG-SS-1809037
NI-FA-W-TSG-SS-1809039
NI-FA-W-TSG-SS-1809042
NI-FA-W-TSG-SS-2002091
NI-FA-W-TSG-SS-2002092
NI-FA-W-TSG-SS-2007052
NI-FA-W-TSG-SS-2007053
NI-FA-W-TSG-SS-2007054
NI-FA-W-TSG-SS-2007055
NI-FA-W-TSG-SS-2007058
NI-FA-W-TSG-SS-2007059
NI-FA-W-TSG-SS-2007060
NI-FA-W-TSG-SS-2007061
NI-FA-W-TSG-SS-2007062
NI-FA-W-TSG-SS-2007063
NI-FA-W-TSG-SS-2007064
NI-FA-W-TSG-SS-2007066
NI-FA-W-TSG-SS-2007067
NI-FA-W-TSG-SS-2007069
NI-FA-W-TSG-SS-2007071
NI-FA-W-TSG-SS-2007072
NI-FA-W-TSG-SS-2007074
NI-FA-W-TSG-SS-2007076
NI-FA-W-TSG-SS-2008009
NI-FA-W-TSG-SS-2008010
NI-FA-W-TSG-SS-2008011
NI-FA-W-TSG-SS-2008012
NI-FA-W-TSG-SS-2008013
NI-FA-W-TSG-SS-2008014
NI-FA-W-TSG-SS-2008015
NI-FA-W-TSG-SS-2008016
NI-FA-W-TSG-SS-2008017
NI-FA-W-TSG-SS-2008021
NI-FA-W-TSG-SS-2008022
NI-FA-W-TSG-SS-2010001
NI-FA-W-TSG-SS-2010002
NI-FA-W-TSG-SS-2010003
NI-FA-W-TSG-SS-2010005
NI-FA-W-TSG-SS-2010006
NI-FA-W-TSH-LS-1808028
NI-FA-W-TSH-LS-1905229
NI-FA-W-TSH-LS-1907132
NI-FA-W-TSH-LS-1908037
NI-FA-W-TSH-LS-1908046
NI-FA-W-TSH-LS-1908047
NI-FA-W-TSH-LS-1908072
NI-FA-W-TSH-LS-1910124
NI-FA-W-TSH-LS-1910156
NI-FA-W-TSP-LS-1910155
NI-FA-W-TSS-LS-1907133
NI-FA-W-TSS-LS-1907135
NI-FA-W-TSS-LS-1909011
NI-FA-W-TSS-LS-2007046
NI-FA-W-TSS-LS-2009045
NI-FA-W-TSS-LS-2010008
NI-FA-W-TSS-NS-1006158
NI-FA-W-TSS-SS-1006160
NI-FA-W-TSS-SS-1006161
NI-FA-W-TSS-SS-1809052
NI-FA-W-TSS-SS-1810036
NI-FA-W-TSS-SS-1810039
NI-FA-W-TSS-SS-1810056
NI-FA-W-TSS-SS-1810191
NI-FA-W-TSS-SS-1905201
NI-FA-W-TSS-SS-1905203
NI-FA-W-TSS-SS-1905204
NI-FA-W-TSS-SS-2009039
NI-FA-W-TSS-SS-2009040
NI-FA-W-TSS-SS-2009041
NI-FA-W-TSS-SS-2009042
NI-FA-W-TSS-SS-2009044
NI-FA-W-TSS-SS-2010007
NI-FE-W-ACF-LO-2012028
NI-FE-W-ACF-LO-2012029
NI-FE-W-ACF-LO-2012030
NI-FE-W-ACF-LO-2012031
NI-FE-W-ACF-LO-2012032
NI-FE-W-ARF-AC-1110064
NI-FE-W-ARF-AC-1110066
NI-FE-W-BAF-AC-1108171
NI-FE-W-BAF-AC-1108173
NI-FE-W-BAF-AC-1108174
NI-FE-W-BAF-AC-1108176
NI-FE-W-BAF-AC-1108179
NI-FE-W-BAF-AC-1108180
NI-FE-W-BAF-AC-1109173
NI-FE-W-BAF-AC-1109174
NI-FE-W-BAF-AC-1109177
NI-FE-W-BAF-AC-1109184
NI-FE-W-BAF-AC-1109185
NI-FE-W-BLF-AC-1011141
NI-FE-W-BLF-AC-1011144
NI-FE-W-BLF-AC-1110273
NI-FE-W-BLF-AC-1110274
NI-FE-W-BLF-AC-1110275
NI-FE-W-BLF-AC-1110276
NI-FE-W-BLF-AC-1110279
NI-FE-W-BLF-AC-1110280
NI-FE-W-BLF-AC-1110281
NI-FE-W-BLF-AC-1110282
NI-FE-W-BLF-AC-1110288
NI-FE-W-CAF-CP-1012346
NI-FE-W-CAF-CP-1106365
NI-FE-W-DEB-LP-1810118
NI-FE-W-DEB-LP-1810122
NI-FE-W-DEB-LP-1811072
NI-FE-W-DEB-LP-1812157
NI-FE-W-DEF-LP-1007004
NI-FE-W-DEF-LP-1007143
NI-FE-W-DEF-LP-1007144
NI-FE-W-DEF-LP-1007145
NI-FE-W-DEF-LP-1007165
NI-FE-W-DEF-LP-1007166
NI-FE-W-DEF-LP-1008173
NI-FE-W-DEF-LP-1008188
NI-FE-W-DEF-LP-1808046
NI-FE-W-DEF-LP-1808047
NI-FE-W-DEF-LP-1810119
NI-FE-W-DEF-LP-1810121
NI-FE-W-DEF-LP-1811073
NI-FE-W-DEF-LP-2011105
NI-FE-W-DEF-LP-2011106
NI-FE-W-DRD-NS-1106352
NI-FE-W-DRF-LS-1006038
NI-FE-W-DRF-LS-1910023
NI-FE-W-DRF-MS-1006039
NI-FE-W-DRF-MS-1006040
NI-FE-W-DRF-MS-1006041
NI-FE-W-DRF-NS-1006092
NI-FE-W-DRF-NS-1106217
NI-FE-W-DRF-SS-1908039
NI-FE-W-DRF-SS-1910024
NI-FE-W-DRF-SS-1911091
NI-FE-W-DRG-LS-1911015
NI-FE-W-DRG-SS-1912020
NI-FE-W-DRV-LS-1912029
NI-FE-W-DRV-SS-1912026
NI-FE-W-ERF-AC-1110070
NI-FE-W-ERF-AC-1110072
NI-FE-W-ERF-AC-1110074
NI-FE-W-ERF-AC-1110075
NI-FE-W-JAF-LS-1006102
NI-FE-W-JAF-LS-1007062
NI-FE-W-JAF-LS-1106131
NI-FE-W-JAF-LS-1109214
NI-FE-W-JAF-LS-1109216
NI-FE-W-JAF-LS-1209013
NI-FE-W-JAF-MS-1107142
NI-FE-W-JAF-MS-2012035
NI-FE-W-JAF-NS-1006108
NI-FE-W-JAF-NS-1007072
NI-FE-W-JAF-NS-1009092
NI-FE-W-JAF-NS-1009221
NI-FE-W-JAF-NS-1106054
NI-FE-W-JAF-NS-1106056
NI-FE-W-JAF-NS-1106129
NI-FE-W-JAF-NS-1106132
NI-FE-W-JAF-NS-2012034
NI-FE-W-JAF-NS-2012036
NI-FE-W-JAF-SS-1008165
NI-FE-W-JAF-SS-1009091
NI-FE-W-JAO-LS-1004039
NI-FE-W-JAO-LS-1004041
NI-FE-W-JAO-LS-1004044
NI-FE-W-JAO-LS-1004047
NI-FE-W-JAO-LS-1006115
NI-FE-W-JAO-LS-1111085
NI-FE-W-JAO-LS-1111089
NI-FE-W-JAO-LS-1111090
NI-FE-W-JAO-LS-1111092
NI-FE-W-JAO-LS-1111094
NI-FE-W-JAP-LS-2110001
NI-FE-W-JAQ-LS-1805115
NI-FE-W-JAQ-LS-1805116
NI-FE-W-JAQ-LS-1805117
NI-FE-W-JAQ-LS-1805118
NI-FE-W-JAQ-LS-1805174
NI-FE-W-JAQ-LS-1906035
NI-FE-W-JAQ-LS-1906036
NI-FE-W-JAQ-LS-1907027
NI-FE-W-JAS-LS-1810051
NI-FE-W-JAS-LS-2010045
NI-FE-W-JUF-NS-1109200
NI-FE-W-KKB-AF-2111021
NI-FE-W-NDF-LP-1007050
NI-FE-W-NDF-LP-1009155
NI-FE-W-NDF-LP-1810052
NI-FE-W-NDF-LP-1810141
NI-FE-W-NDS-LP-2010046
NI-FE-W-NKF-AC-1110050
NI-FE-W-NKF-AC-1110054
NI-FE-W-NKF-AC-1110057
NI-FE-W-POB-SS-1107008
NI-FE-W-POB-SS-1107009
NI-FE-W-SCA-LO-1812199
NI-FE-W-SCA-LO-1812201
NI-FE-W-SCF-LO-2012037
NI-FE-W-SCW-LO-1812200
NI-FE-W-SEF-LF-2111009
NI-FE-W-SHB-LS-1209085
NI-FE-W-SHF-LS-1005086
NI-FE-W-SHF-LS-1005087
NI-FE-W-SHF-LS-1006101
NI-FE-W-SHF-LS-1006113
NI-FE-W-SHF-LS-1006163
NI-FE-W-SHF-LS-1007007
NI-FE-W-SHF-LS-1007008
NI-FE-W-SHF-LS-1007009
NI-FE-W-SHF-LS-1007016
NI-FE-W-SHF-LS-1007017
NI-FE-W-SHF-LS-1007020
NI-FE-W-SHF-LS-1009218
NI-FE-W-SHF-LS-1009222
NI-FE-W-SHF-LS-1009246
NI-FE-W-SHF-LS-1009247
NI-FE-W-SHF-LS-1106091
NI-FE-W-SHF-LS-1810007
NI-FE-W-SHF-LS-1810009
NI-FE-W-SHF-LS-1907145
NI-FE-W-SHF-LS-1910151
NI-FE-W-SHF-LS-1911012
NI-FE-W-SHF-MS-1005088
NI-FE-W-SHF-MS-1005089
NI-FE-W-SHF-MS-1005090
NI-FE-W-SHF-MS-1007023
NI-FE-W-SHF-MS-1007024
NI-FE-W-SHF-MS-1007059
NI-FE-W-SHF-MS-1010436
NI-FE-W-SHF-MS-1109124
NI-FE-W-SHF-MS-1210027
NI-FE-W-SHF-MS-1210028
NI-FE-W-SHF-MS-1210029
NI-FE-W-SHF-MS-1810049
NI-FE-W-SHF-NS-1006037
NI-FE-W-SHF-NS-1007030
NI-FE-W-SHF-NS-1007034
NI-FE-W-SHF-NS-1007060
NI-FE-W-SHF-NS-1007069
NI-FE-W-SHF-NS-1008109
NI-FE-W-SHF-NS-1011195
NI-FE-W-SHF-NS-1011196
NI-FE-W-SHF-NS-1011198
NI-FE-W-SHF-NS-1011199
NI-FE-W-SHF-NS-1106098
NI-FE-W-SHF-NS-1106099
NI-FE-W-SHF-NS-1106135
NI-FE-W-SHF-NS-1106195
NI-FE-W-SHF-NS-1109027
NI-FE-W-SHF-NS-1303038
NI-FE-W-SHF-SS-1005093
NI-FE-W-SHF-SS-1007091
NI-FE-W-SHF-SS-1007164
NI-FE-W-SHF-SS-1010408
NI-FE-W-SHF-SS-1010438
NI-FE-W-SHF-SS-1010441
NI-FE-W-SHF-SS-1010447
NI-FE-W-SHF-SS-1106203
NI-FE-W-SHF-SS-1106212
NI-FE-W-SHF-SS-1609267
NI-FE-W-SHF-SS-1810168
NI-FE-W-SHP-LS-2010029
NI-FE-W-SHS-LS-1005081
NI-FE-W-SHS-LS-1005082
NI-FE-W-SHS-LS-1005083
NI-FE-W-SHS-LS-1005085
NI-FE-W-SHS-LS-1007010
NI-FE-W-SHS-LS-1007012
NI-FE-W-SHS-LS-1008161
NI-FE-W-SHS-LS-1104103
NI-FE-W-SHS-LS-1104110
NI-FE-W-SHS-LS-1106233
NI-FE-W-SHS-LS-1411112
NI-FE-W-SHS-LS-1810048
NI-FE-W-SHS-LS-1810166
NI-FE-W-SHS-LS-1811059
NI-FE-W-SHS-LS-1811060
NI-FE-W-SHS-LS-1908040
NI-FE-W-SHS-LS-1910025
NI-FE-W-SHS-LS-2010022
NI-FE-W-SHS-LS-2010023
NI-FE-W-SHS-LS-2010025
NI-FE-W-SHS-LS-2010026
NI-FE-W-SHS-LS-2010028
NI-FE-W-SHS-LS-2010030
NI-FE-W-SHS-SS-1008189
NI-FE-W-SHS-SS-1601021
NI-FE-W-SHV-LS-1812160
NI-FE-W-SHV-LS-2101059
NI-FE-W-SKB-MK-1009157
NI-FE-W-SKF-SK-1006088
NI-FE-W-SKF-SK-1010456
NI-FE-W-SKF-SK-1107124
NI-FE-W-SKF-SK-1109201
NI-FE-W-SOF-SP-1009099
NI-FE-W-SOF-SP-1106059
NI-FE-W-SOF-SP-1106218
NI-FE-W-SOF-SS-1108255
NI-FE-W-SOS-SP-1209026
NI-FE-W-STB-LC-1910036
NI-FE-W-STB-LC-1910037
NI-FE-W-STF-IL-1910033
NI-FE-W-STF-IL-1910034
NI-FE-W-STF-IL-1910035
NI-FE-W-TSB-LS-1108352
NI-FE-W-TSB-NS-1006100
NI-FE-W-TSB-SS-1210002
NI-FE-W-TSB-SS-1210003
NI-FE-W-TSB-SS-1910290
NI-FE-W-TSB-SS-1910291
NI-FE-W-TSF-LS-1006079
NI-FE-W-TSF-LS-1006080
NI-FE-W-TSF-LS-1007006
NI-FE-W-TSF-LS-1007066
NI-FE-W-TSF-MS-1012104
NI-FE-W-TSF-MS-1910125
NI-FE-W-TSF-NS-1007002
NI-FE-W-TSF-NS-1007003
NI-FE-W-TSF-NS-1007065
NI-FE-W-TSF-NS-1007180
NI-FE-W-TSF-NS-1106128
NI-FE-W-TSF-SS-1006106
NI-FE-W-TSF-SS-1007052
NI-FE-W-TSF-SS-1007053
NI-FE-W-TSF-SS-1010457
NI-FE-W-TSF-SS-1012105
NI-FE-W-TSF-SS-1106127
NI-FE-W-TSF-SS-1106130
NI-FE-W-TSF-SS-1107041
NI-FE-W-TSF-SS-1107055
NI-FE-W-TSF-SS-1109094
NI-FE-W-TSF-SS-1109244
NI-FE-W-TSF-SS-1111001
NI-FE-W-TSF-SS-1206200
NI-FE-W-TSF-SS-1910127
NI-FE-W-TSF-SS-1910149
NI-FE-W-TSF-SS-1910262
NI-FE-W-TSF-SS-1910263
NI-FE-W-TSF-SS-1910264
NI-FE-W-TSF-SS-1911013
NI-FE-W-TSF-SS-1911017
NI-FE-W-TSF-SS-1911031
NI-FE-W-TSF-SS-1911032
NI-FE-W-TSF-SS-1911080
NI-FE-W-TSF-SS-1911081
NI-FE-W-TSF-SS-1911082
NI-FE-W-TSF-SS-1911083
NI-FE-W-TSF-SS-1911087
NI-FE-W-TSF-SS-1911088
NI-FE-W-TSF-SS-1911089
NI-FE-W-TSF-SS-1911090
NI-FE-W-TSF-SS-1912044
NI-FE-W-TSF-SS-1912045
NI-FE-W-TSG-LS-1108286
NI-FE-W-TSG-LS-2012022
NI-FE-W-TSG-MS-1109003
NI-FE-W-TSG-NS-1006072
NI-FE-W-TSG-NS-1006074
NI-FE-W-TSG-NS-1011217
NI-FE-W-TSG-SS-1006046
NI-FE-W-TSG-SS-1006048
NI-FE-W-TSG-SS-1006049
NI-FE-W-TSG-SS-1006050
NI-FE-W-TSG-SS-1006052
NI-FE-W-TSG-SS-1006056
NI-FE-W-TSG-SS-1006057
NI-FE-W-TSG-SS-1006059
NI-FE-W-TSG-SS-1006060
NI-FE-W-TSG-SS-1006063
NI-FE-W-TSG-SS-1006067
NI-FE-W-TSG-SS-1006068
NI-FE-W-TSG-SS-1007054
NI-FE-W-TSG-SS-1007055
NI-FE-W-TSG-SS-1007056
NI-FE-W-TSG-SS-1010160
NI-FE-W-TSG-SS-1010161
NI-FE-W-TSG-SS-1012102
NI-FE-W-TSG-SS-1012306
NI-FE-W-TSG-SS-1012307
NI-FE-W-TSG-SS-1012308
NI-FE-W-TSG-SS-1012309
NI-FE-W-TSG-SS-1012310
NI-FE-W-TSG-SS-1012311
NI-FE-W-TSG-SS-1106112
NI-FE-W-TSG-SS-1106123
NI-FE-W-TSG-SS-1108132
NI-FE-W-TSG-SS-1108133
NI-FE-W-TSG-SS-1108257
NI-FE-W-TSG-SS-1108258
NI-FE-W-TSG-SS-1108259
NI-FE-W-TSG-SS-1108260
NI-FE-W-TSG-SS-1108406
NI-FE-W-TSG-SS-1108458
NI-FE-W-TSG-SS-1109002
NI-FE-W-TSG-SS-1209060
NI-FE-W-TSG-SS-1209061
NI-FE-W-TSG-SS-1209064
NI-FE-W-TSG-SS-1209066
NI-FE-W-TSG-SS-1410014
NI-FE-W-TSG-SS-1410037
NI-FE-W-TSG-SS-1509061
NI-FE-W-TSG-SS-1910143
NI-FE-W-TSG-SS-1910144
NI-FE-W-TSG-SS-1910145
NI-FE-W-TSG-SS-1910146
NI-FE-W-TSG-SS-1910147
NI-FE-W-TSG-SS-1910148
NI-FE-W-TSG-SS-1910253
NI-FE-W-TSG-SS-1910254
NI-FE-W-TSG-SS-1910255
NI-FE-W-TSG-SS-1910256
NI-FE-W-TSG-SS-1910257
NI-FE-W-TSG-SS-1910258
NI-FE-W-TSG-SS-1910259
NI-FE-W-TSG-SS-1910260
NI-FE-W-TSG-SS-1911014
NI-FE-W-TSG-SS-1911084
NI-FE-W-TSG-SS-1911085
NI-FE-W-TSG-SS-1911086
NI-FE-W-TSG-SS-1911092
NI-FE-W-TSG-SS-1911095
NI-FE-W-TSG-SS-1911096
NI-FE-W-TSG-SS-1911097
NI-FE-W-TSG-SS-1911098
NI-FE-W-TSG-SS-1911099
NI-FE-W-TSG-SS-1911100
NI-FE-W-TSG-SS-1911101
NI-FE-W-TSG-SS-1911103
NI-FE-W-TSG-SS-1911114
NI-FE-W-TSG-SS-1912014
NI-FE-W-TSG-SS-2010073
NI-FE-W-TSG-SS-2010074
NI-FE-W-TSG-SS-2111053
NI-FE-W-TSG-SS-2111054
NI-FE-W-TSG-SS-2111055
NI-FE-W-TSG-SS-2111056
NI-FE-W-TSG-SS-2111057
NI-FE-W-TSG-SS-2112002
NI-FE-W-TSG-SS-2112003
NI-FE-W-TSG-SS-2112004
NI-FE-W-TSH-LS-1811062
NI-FE-W-TSH-LS-1910126
NI-FE-W-TSH-LS-2010040
NI-FE-W-TSH-LS-2010041
NI-FE-W-TSH-LS-2010042
NI-FE-W-TSH-LS-2010043
NI-FE-W-TSH-LS-2010044
NI-FE-W-TSH-LS-2011030
NI-FE-W-TSH-LS-2011031
NI-FE-W-TSH-LS-2011032
NI-FE-W-TSH-LS-2011039
NI-FE-W-TSO-LS-1909110
NI-FE-W-TSO-SS-1909101
NI-FE-W-TSO-SS-1909102
NI-FE-W-TSO-SS-1909103
NI-FE-W-TSO-SS-1909104
NI-FE-W-TSO-SS-1909105
NI-FE-W-TSO-SS-1909106
NI-FE-W-TSO-SS-1909107
NI-FE-W-TSO-SS-1909108
NI-FE-W-TSO-SS-1909109
NI-FE-W-TSO-SS-1909111
NI-FE-W-TSO-SS-1909112
NI-FE-W-TSO-SS-1909113
NI-FE-W-TSS-LS-2011061
NI-FE-W-TSS-LS-2011065
NI-FE-W-TSS-SS-1709010
NI-FE-W-TSS-SS-1910251
NI-FE-W-TSS-SS-1910252
NI-FE-W-TSS-SS-2011060
NI-FE-W-TSS-SS-2011062
NI-FE-W-TSS-SS-2011063
NI-FE-W-TSS-SS-2011064
NI-FE-W-TSV-SS-1812066
NI-FE-W-TSV-SS-1911115
NI-FE-W-TSV-SS-1911117
NI-FF-W-SHF-NS-1202189
NI-SS-W-JAF-LS-1201009
NI-SS-W-TSB-SS-1202007
NI-SS-W-TSB-SS-1202009
NI-SS-W-TSF-SS-1109042
NI-SS-W-TSF-SS-1109045
NI-SS-W-TSF-SS-1201010
NI-SS-W-TSG-SS-1109049
NI-SS-W-TSG-SS-1109051
NI-SS-W-TSG-SS-1203014
NI-SS-W-TSG-SS-1203017
NI-SS-W-TSG-SS-1203019
NI-SS-W-TSG-SS-1203020
NI-SS-W-TSG-SS-1203023
NI-SU-W-ACC-AL-1806009
NI-SU-W-ACC-AU-1806007
NI-SU-W-ACC-EN-1806005
NI-SU-W-ACC-EN-1806006
NI-SU-W-ACC-EN-1806008
NI-SU-W-ACC-ER-1804157
NI-SU-W-ACC-ER-1804158
NI-SU-W-ACC-ER-1804159
NI-SU-W-ACC-ER-1804160
NI-SU-W-ACC-ER-1806002
NI-SU-W-ACC-ER-1806003
NI-SU-W-ACC-ER-1806004
NI-SU-W-ACC-NE-1804155
NI-SU-W-ACC-NE-1804156
NI-SU-W-ACC-NE-1806001
NI-SU-W-ACC-NE-1806010
NI-SU-W-BAF-TO-1904011
NI-SU-W-BAF-TO-1904012
NI-SU-W-BAF-TO-1904013
NI-SU-W-BAF-TO-1904014
NI-SU-W-BAF-TO-2003154
NI-SU-W-BAF-TO-2003155
NI-SU-W-BAF-TO-2003156
NI-SU-W-BLF-LP-1706116
NI-SU-W-BOI-SS-2103053
NI-SU-W-CAF-CP-1003001
NI-SU-W-DEB-CF-2202027
NI-SU-W-DEB-LP-1009040
NI-SU-W-DEB-LP-1010125
NI-SU-W-DEB-LP-1912077
NI-SU-W-DEB-LP-1912085
NI-SU-W-DEF-LP-1009034
NI-SU-W-DEF-LP-1009036
NI-SU-W-DEF-LP-1009037
NI-SU-W-DEF-LP-1009090
NI-SU-W-DEF-LP-1101219
NI-SU-W-DEF-LP-1101220
NI-SU-W-DEF-LP-1102104
NI-SU-W-DEF-LP-1806067
NI-SU-W-DEF-LP-1901075
NI-SU-W-DEF-LP-1901077
NI-SU-W-DEF-LP-1901078
NI-SU-W-DEF-LP-1902070
NI-SU-W-DEF-LP-1912080
NI-SU-W-DEF-LP-1912082
NI-SU-W-DEF-LP-1912083
NI-SU-W-DEF-LP-1912084
NI-SU-W-DRD-LS-1904049
NI-SU-W-DRD-NS-1904048
NI-SU-W-DRD-NS-1904050
NI-SU-W-DRD-NS-1904051
NI-SU-W-DRD-NS-2003157
NI-SU-W-DRD-SS-1904052
NI-SU-W-DRF-LS-1009146
NI-SU-W-DRF-LS-1904019
NI-SU-W-DRF-NS-1003048
NI-SU-W-DRF-NS-1003071
NI-SU-W-DRF-NS-1009141
NI-SU-W-DRF-NS-1009144
NI-SU-W-DRF-NS-1011222
NI-SU-W-DRF-NS-1902045
NI-SU-W-DRF-SS-1403068
NI-SU-W-DRF-SS-1902075
NI-SU-W-DRF-SS-1904020
NI-SU-W-JAD-LS-2003159
NI-SU-W-JAF-LS-1909093
NI-SU-W-JAF-NS-1003030
NI-SU-W-JAF-NS-1003082
NI-SU-W-JAF-NS-1003093
NI-SU-W-JAF-NS-1011219
NI-SU-W-JAF-NS-1012256
NI-SU-W-JAF-SS-1003094
NI-SU-W-JAF-SS-1009053
NI-SU-W-JAI-LS-1003069
NI-SU-W-JAI-LS-1003085
NI-SU-W-JAI-LS-1003086
NI-SU-W-JAI-LS-1003087
NI-SU-W-JAI-LS-1102089
NI-SU-W-JAI-LS-1103181
NI-SU-W-JAK-LS-1902073
NI-SU-W-JAP-LS-1912088
NI-SU-W-JAP-LS-1912090
NI-SU-W-JAP-LS-2101001
NI-SU-W-JAP-LS-2101002
NI-SU-W-JAS-LS-1811101
NI-SU-W-JAS-LS-1902005
NI-SU-W-JAS-LS-1904017
NI-SU-W-JAS-LS-1904018
NI-SU-W-JAS-LS-1912089
NI-SU-W-JAS-LS-2101057
NI-SU-W-JAS-LS-2101058
NI-SU-W-JUD-SS-2003158
NI-SU-W-JUF-NS-1903028
NI-SU-W-NDF-LP-1004048
NI-SU-W-NDF-LP-1007177
NI-SU-W-NDF-LP-1009113
NI-SU-W-NDF-LP-1010404
NI-SU-W-NDF-LP-1012285
NI-SU-W-NDF-LP-1101218
NI-SU-W-NDF-LP-1905109
NI-SU-W-NDO-LP-1007175
NI-SU-W-POF-SS-1011003
NI-SU-W-POF-SS-1011004
NI-SU-W-POF-SS-1011005
NI-SU-W-SHB-LS-1003036
NI-SU-W-SHB-LS-1103267
NI-SU-W-SHB-SS-1004011
NI-SU-W-SHF-LS-1003037
NI-SU-W-SHF-LS-1003038
NI-SU-W-SHF-LS-1003039
NI-SU-W-SHF-LS-1003044
NI-SU-W-SHF-LS-1003074
NI-SU-W-SHF-LS-1003075
NI-SU-W-SHF-LS-1004050
NI-SU-W-SHF-LS-1004059
NI-SU-W-SHF-LS-1004061
NI-SU-W-SHF-LS-1004062
NI-SU-W-SHF-LS-1004063
NI-SU-W-SHF-LS-1004099
NI-SU-W-SHF-LS-1011323
NI-SU-W-SHF-LS-1702015
NI-SU-W-SHF-LS-1811081
NI-SU-W-SHF-LS-1811093
NI-SU-W-SHF-LS-1812130
NI-SU-W-SHF-LS-1901002
NI-SU-W-SHF-LS-1901003
NI-SU-W-SHF-LS-1901016
NI-SU-W-SHF-LS-1901054
NI-SU-W-SHF-LS-1901055
NI-SU-W-SHF-LS-1902043
NI-SU-W-SHF-LS-1903048
NI-SU-W-SHF-LS-1903049
NI-SU-W-SHF-LS-1903050
NI-SU-W-SHF-LS-1904016
NI-SU-W-SHF-LS-1904021
NI-SU-W-SHF-LS-1905001
NI-SU-W-SHF-LS-1905102
NI-SU-W-SHF-LS-1911018
NI-SU-W-SHF-LS-1911019
NI-SU-W-SHF-LS-1911020
NI-SU-W-SHF-LS-1911021
NI-SU-W-SHF-LS-1911022
NI-SU-W-SHF-LS-1911066
NI-SU-W-SHF-LS-1911068
NI-SU-W-SHF-LS-1911070
NI-SU-W-SHF-LS-1911071
NI-SU-W-SHF-LS-1911072
NI-SU-W-SHF-LS-1911073
NI-SU-W-SHF-LS-1911074
NI-SU-W-SHF-LS-1911075
NI-SU-W-SHF-LS-1911077
NI-SU-W-SHF-LS-1911079
NI-SU-W-SHF-LS-1912094
NI-SU-W-SHF-LS-1912095
NI-SU-W-SHF-LS-2001020
NI-SU-W-SHF-MS-1012356
NI-SU-W-SHF-MS-1811083
NI-SU-W-SHF-MS-1903027
NI-SU-W-SHF-MS-1903122
NI-SU-W-SHF-MS-1912093
NI-SU-W-SHF-NS-1003041
NI-SU-W-SHF-NS-1003046
NI-SU-W-SHF-NS-1004017
NI-SU-W-SHF-NS-1004018
NI-SU-W-SHF-NS-1004057
NI-SU-W-SHF-NS-1009120
NI-SU-W-SHF-NS-1009121
NI-SU-W-SHF-NS-1009127
NI-SU-W-SHF-NS-1009131
NI-SU-W-SHF-NS-1009138
NI-SU-W-SHF-NS-1009219
NI-SU-W-SHF-NS-1012374
NI-SU-W-SHF-NS-1904054
NI-SU-W-SHF-SE-1912019
NI-SU-W-SHF-SS-1003070
NI-SU-W-SHF-SS-1004004
NI-SU-W-SHF-SS-1004005
NI-SU-W-SHF-SS-1004007
NI-SU-W-SHF-SS-1004010
NI-SU-W-SHF-SS-1004013
NI-SU-W-SHF-SS-1004056
NI-SU-W-SHF-SS-1011337
NI-SU-W-SHF-SS-1011338
NI-SU-W-SHF-SS-1011339
NI-SU-W-SHF-SS-1408007
NI-SU-W-SHF-SS-1812166
NI-SU-W-SHF-SS-1812195
NI-SU-W-SHF-SS-1901004
NI-SU-W-SHF-SS-1903041
NI-SU-W-SHF-SS-1905002
NI-SU-W-SHF-SS-1911078
NI-SU-W-SHF-SS-1912091
NI-SU-W-SHF-SS-2002065
NI-SU-W-SHO-LS-2001021
NI-SU-W-SHO-LS-2001022
NI-SU-W-SHS-LS-1911067
NI-SU-W-SHS-LS-1911069
NI-SU-W-SHS-LS-1911076
NI-SU-W-SKD-SK-1806094
NI-SU-W-SKD-SK-1806095
NI-SU-W-SKD-SK-1806096
NI-SU-W-SKF-MF-2104121
NI-SU-W-SKF-SK-1903103
NI-SU-W-SOB-SP-1009104
NI-SU-W-SOD-SF-2104047
NI-SU-W-SOD-SF-2104048
NI-SU-W-SOD-SF-2104053
NI-SU-W-SOD-SP-1405018
NI-SU-W-SOD-SP-1810123
NI-SU-W-SOD-SP-1810124
NI-SU-W-SOD-SP-1810125
NI-SU-W-SOD-SP-1903095
NI-SU-W-SOD-SP-1910047
NI-SU-W-SOD-SP-1911123
NI-SU-W-SOF-SP-1003002
NI-SU-W-SOF-SP-1004022
NI-SU-W-SOF-SP-1008154
NI-SU-W-SOF-SP-1009098
NI-SU-W-SOF-SP-1009102
NI-SU-W-SOF-SP-1012320
NI-SU-W-SOF-SP-1104009
NI-SU-W-SOK-SP-1903094
NI-SU-W-SOK-SP-1910187
NI-SU-W-SON-SP-1009107
NI-SU-W-STB-LC-2001009
NI-SU-W-STB-LC-2001010
NI-SU-W-STB-LC-2012064
NI-SU-W-STB-LC-2012066
NI-SU-W-STB-LC-2012067
NI-SU-W-STF-IL-2001008
NI-SU-W-STF-LC-2012065
NI-SU-W-STS-LC-2001011
NI-SU-W-TSB-NS-1003033
NI-SU-W-TSB-NS-1105038
NI-SU-W-TSB-NS-1105039
NI-SU-W-TSB-NS-1105040
NI-SU-W-TSB-NS-1802015
NI-SU-W-TSB-NS-1802016
NI-SU-W-TSB-NS-2002089
NI-SU-W-TSB-SS-1801011
NI-SU-W-TSB-SS-1801012
NI-SU-W-TSB-SS-1901107
NI-SU-W-TSB-SS-1903007
NI-SU-W-TSF-LS-1011156
NI-SU-W-TSF-LS-1011157
NI-SU-W-TSF-MS-1010283
NI-SU-W-TSF-NS-1004102
NI-SU-W-TSF-NS-1004103
NI-SU-W-TSF-NS-1004108
NI-SU-W-TSF-NS-1004111
NI-SU-W-TSF-NS-1004117
NI-SU-W-TSF-NS-1008034
NI-SU-W-TSF-NS-1008065
NI-SU-W-TSF-NS-1008112
NI-SU-W-TSF-NS-1008113
NI-SU-W-TSF-NS-1008114
NI-SU-W-TSF-NS-1008115
NI-SU-W-TSF-NS-1010284
NI-SU-W-TSF-NS-1012324
NI-SU-W-TSF-NS-1012330
NI-SU-W-TSF-NS-1012355
NI-SU-W-TSF-NS-1902095
NI-SU-W-TSF-SS-1008037
NI-SU-W-TSF-SS-1008039
NI-SU-W-TSF-SS-1008045
NI-SU-W-TSF-SS-1008057
NI-SU-W-TSF-SS-1008058
NI-SU-W-TSF-SS-1008060
NI-SU-W-TSF-SS-1008062
NI-SU-W-TSF-SS-1010292
NI-SU-W-TSF-SS-1010296
NI-SU-W-TSF-SS-1901108
NI-SU-W-TSF-SS-1901113
NI-SU-W-TSF-SS-1901115
NI-SU-W-TSF-SS-1901120
NI-SU-W-TSF-SS-1901124
NI-SU-W-TSF-SS-1901130
NI-SU-W-TSF-SS-1901155
NI-SU-W-TSF-SS-1901159
NI-SU-W-TSF-SS-1903004
NI-SU-W-TSF-SS-1903005
NI-SU-W-TSG-LS-1004119
NI-SU-W-TSG-LS-1010279
NI-SU-W-TSG-NS-1008022
NI-SU-W-TSG-NS-1008026
NI-SU-W-TSG-NS-1008027
NI-SU-W-TSG-NS-1008028
NI-SU-W-TSG-NS-1008063
NI-SU-W-TSG-NS-1011324
NI-SU-W-TSG-SS-1004101
NI-SU-W-TSG-SS-1004104
NI-SU-W-TSG-SS-1004105
NI-SU-W-TSG-SS-1004107
NI-SU-W-TSG-SS-1004110
NI-SU-W-TSG-SS-1004116
NI-SU-W-TSG-SS-1008005
NI-SU-W-TSG-SS-1008014
NI-SU-W-TSG-SS-1008016
NI-SU-W-TSG-SS-1008017
NI-SU-W-TSG-SS-1008018
NI-SU-W-TSG-SS-1008136
NI-SU-W-TSG-SS-1008138
NI-SU-W-TSG-SS-1008140
NI-SU-W-TSG-SS-1008146
NI-SU-W-TSG-SS-1008147
NI-SU-W-TSG-SS-1008148
NI-SU-W-TSG-SS-1008182
NI-SU-W-TSG-SS-1008184
NI-SU-W-TSG-SS-1010288
NI-SU-W-TSG-SS-1010289
NI-SU-W-TSG-SS-1010290
NI-SU-W-TSG-SS-1010291
NI-SU-W-TSG-SS-1010294
NI-SU-W-TSG-SS-1010295
NI-SU-W-TSG-SS-1010298
NI-SU-W-TSG-SS-1010299
NI-SU-W-TSG-SS-1210051
NI-SU-W-TSG-SS-1311039
NI-SU-W-TSG-SS-1311040
NI-SU-W-TSG-SS-1311041
NI-SU-W-TSG-SS-1311042
NI-SU-W-TSG-SS-1602021
NI-SU-W-TSG-SS-1603073
NI-SU-W-TSG-SS-1604032
NI-SU-W-TSG-SS-1604045
NI-SU-W-TSG-SS-1803085
NI-SU-W-TSG-SS-1805012
NI-SU-W-TSG-SS-1901110
NI-SU-W-TSG-SS-1901111
NI-SU-W-TSG-SS-1901114
NI-SU-W-TSG-SS-1901116
NI-SU-W-TSG-SS-1901117
NI-SU-W-TSG-SS-1901119
NI-SU-W-TSG-SS-1901122
NI-SU-W-TSG-SS-1901123
NI-SU-W-TSG-SS-1901125
NI-SU-W-TSG-SS-1901127
NI-SU-W-TSG-SS-1901129
NI-SU-W-TSG-SS-1901131
NI-SU-W-TSG-SS-1901132
NI-SU-W-TSG-SS-1901133
NI-SU-W-TSG-SS-1901136
NI-SU-W-TSG-SS-1901141
NI-SU-W-TSG-SS-1901142
NI-SU-W-TSG-SS-1901143
NI-SU-W-TSG-SS-1901144
NI-SU-W-TSG-SS-1901145
NI-SU-W-TSG-SS-1901146
NI-SU-W-TSG-SS-1901149
NI-SU-W-TSG-SS-1901150
NI-SU-W-TSG-SS-1901151
NI-SU-W-TSG-SS-1901152
NI-SU-W-TSG-SS-1901154
NI-SU-W-TSG-SS-1902098
NI-SU-W-TSG-SS-1904029
NI-SU-W-TSG-SS-1904030
NI-SU-W-TSG-SS-1904031
NI-SU-W-TSG-SS-1904032
NI-SU-W-TSG-SS-1904033
NI-SU-W-TSG-SS-1904034
NI-SU-W-TSG-SS-1904035
NI-SU-W-TSG-SS-1904036
NI-SU-W-TSG-SS-1912015
NI-SU-W-TSG-SS-1912017
NI-SU-W-TSG-SS-2104036
NI-SU-W-TSG-SS-2104037
NI-SU-W-TSG-SS-2104038
NI-SU-W-TSG-SS-2104039
NI-SU-W-TSG-SS-2104040
NI-SU-W-TSG-SS-2104042
NI-SU-W-TSG-SS-2104043
NI-SU-W-TSG-SS-2104044
NI-SU-W-TSG-SS-2104045
NI-SU-W-TSG-SS-2104046
NI-SU-W-TSG-SS-2104049
NI-SU-W-TSG-SS-2104050
NI-SU-W-TSG-SS-2104051
NI-SU-W-TSG-SS-2104052
NI-SU-W-TSG-SS-2104054
NI-SU-W-TSG-SS-2104055
NI-SU-W-TSG-SS-2104056
NI-SU-W-TSG-SS-2104101
NI-SU-W-TSG-SS-2104102
NI-SU-W-TSG-SS-2104103
NI-SU-W-TSG-SS-2104104
NI-SU-W-TSG-SS-2104105
NI-SU-W-TSG-SS-2104106
NI-SU-W-TSG-SS-2104107
NI-SU-W-TSG-SS-2104108
NI-SU-W-TSG-SS-2104109
NI-SU-W-TSG-SS-2104110
NI-SU-W-TSS-SS-1210103
NI-SU-W-TSS-SS-1210104
NI-SU-W-TSS-SS-1905015
NI-SU-W-TSS-SS-1905016
NI-SU-W-TSS-SS-1905017
NI-SU-W-TSS-SS-1905019
NMC-FE-W-BOI-NS-2110009
NMC-FE-W-DRF-SF-2110046
NMC-FE-W-DRF-SF-2111013
NMC-SU-W-BLI-LS-2104022
NMC-SU-W-BLI-LS-2104023
NMC-SU-W-BOI-NS-2104097
NMC-SU-W-JAT-LS-2103050
NMC-SU-W-SKE-SF-2104028
NMC-SU-W-SKF-MF-2104027
NMC-SU-W-SKF-MF-2111061
NMC-SU-W-TRE-CF-2104122
NM-FA-W-ACF-AC-1006082
NM-FA-W-ACF-AC-1006083
NM-FA-W-BAF-AC-1106277
NM-FA-W-BAF-AC-1106278
NM-FA-W-BAF-AC-1106279
NM-FA-W-BAF-AC-1106280
NM-FA-W-BAF-AC-1106283
NM-FA-W-BAF-AC-1106284
NM-FA-W-BAF-AC-1106285
NM-FA-W-BLB-SE-1908035
NM-FA-W-BLB-SE-1909070
NM-FA-W-BLS-SE-1909039
NM-FA-W-BLS-SE-1909040
NM-FA-W-CAK-CA-1105068
NM-FA-W-DEB-LP-1004021
NM-FA-W-DEB-LP-1004022
NM-FA-W-DEB-LP-1004023
NM-FA-W-DEB-LP-1903100
NM-FA-W-DEB-LP-1905022
NM-FA-W-DEB-LP-1907090
NM-FA-W-DEF-LP-1004025
NM-FA-W-DEF-LP-1903099
NM-FA-W-DEF-LP-1903101
NM-FA-W-DRA-NS-1004039
NM-FA-W-DRB-NS-1005049
NM-FA-W-DRB-SS-1005015
NM-FA-W-DRB-SS-1005048
NM-FA-W-DRB-SS-1008052
NM-FA-W-DRE-NS-1104199
NM-FA-W-DRE-SS-1104271
NM-FA-W-DRE-SS-1104272
NM-FA-W-DRE-SS-1105088
NM-FA-W-DRF-LS-1905169
NM-FA-W-DRF-LS-1906041
NM-FA-W-DRF-LS-1906062
NM-FA-W-DRF-LS-1907045
NM-FA-W-DRF-LS-1909029
NM-FA-W-DRF-LS-2011013
NM-FA-W-DRF-MS-1005045
NM-FA-W-DRF-MS-1005046
NM-FA-W-DRF-MS-1005055
NM-FA-W-DRF-MS-1104384
NM-FA-W-DRF-MS-1106384
NM-FA-W-DRF-MS-1903079
NM-FA-W-DRF-MS-1905110
NM-FA-W-DRF-MS-1905111
NM-FA-W-DRF-MS-1905161
NM-FA-W-DRF-MS-1907035
NM-FA-W-DRF-NS-1005001
NM-FA-W-DRF-NS-1105087
NM-FA-W-DRF-NS-1108122
NM-FA-W-DRF-NS-1109148
NM-FA-W-DRF-NS-1402019
NM-FA-W-DRF-NS-1402029
NM-FA-W-DRF-NS-1402030
NM-FA-W-DRF-NS-1904007
NM-FA-W-DRF-NS-1905113
NM-FA-W-DRF-NS-1905114
NM-FA-W-DRF-NS-1905127
NM-FA-W-DRF-NS-1906058
NM-FA-W-DRF-NS-1906071
NM-FA-W-DRF-NS-1909027
NM-FA-W-DRF-SS-1004029
NM-FA-W-DRF-SS-1102007
NM-FA-W-DRF-SS-1104353
NM-FA-W-DRF-SS-1105046
NM-FA-W-DRF-SS-1709024
NM-FA-W-DRF-SS-1904008
NM-FA-W-DRF-SS-1904042
NM-FA-W-DRF-SS-1905112
NM-FA-W-DRF-SS-1905170
NM-FA-W-DRF-SS-1905174
NM-FA-W-DRF-SS-1906039
NM-FA-W-DRF-SS-1906060
NM-FA-W-DRF-SS-1909030
NM-FA-W-DRF-SS-1910031
NM-FA-W-DRF-SS-1910044
NM-FA-W-DRF-SS-2007001
NM-FA-W-DRF-SS-2007002
NM-FA-W-DRF-SS-2007003
NM-FA-W-DRF-SS-2007004
NM-FA-W-DRF-SS-2007005
NM-FA-W-DRF-SS-2009003
NM-FA-W-DRK-NS-1106171
NM-FA-W-DRO-NS-1006073
NM-FA-W-JAF-SS-1004001
NM-FA-W-JAS-LS-1106399
NM-FA-W-JAW-LS-1806055
NM-FA-W-NDA-LP-1005014
NM-FA-W-NDB-LP-1009206
NM-FA-W-NDE-LP-1905126
NM-FA-W-NDE-LP-1906069
NM-FA-W-NDE-LP-1907105
NM-FA-W-NDE-LP-1907106
NM-FA-W-NDF-CP-1905235
NM-FA-W-NDF-LP-1005021
NM-FA-W-NDF-LP-1005058
NM-FA-W-NDF-LP-1006065
NM-FA-W-NDF-LP-1905116
NM-FA-W-NDF-LP-1905117
NM-FA-W-NDF-LP-1906042
NM-FA-W-NDF-LP-1906067
NM-FA-W-NDF-LP-1907024
NM-FA-W-NDF-LP-1907042
NM-FA-W-NDF-LP-1907047
NM-FA-W-NDF-LP-1907150
NM-FA-W-NDF-LP-1907151
NM-FA-W-NDF-LP-1907152
NM-FA-W-NDF-LP-1909035
NM-FA-W-SCF-AC-1108050
NM-FA-W-SHB-LS-1106422
NM-FA-W-SHB-LS-1106423
NM-FA-W-SHB-LS-2008005
NM-FA-W-SHB-LS-2008006
NM-FA-W-SHB-SS-1106015
NM-FA-W-SHF-LS-1005002
NM-FA-W-SHF-LS-1005054
NM-FA-W-SHF-LS-1006057
NM-FA-W-SHF-LS-1006066
NM-FA-W-SHF-LS-1104037
NM-FA-W-SHF-LS-1104381
NM-FA-W-SHF-LS-1904040
NM-FA-W-SHF-LS-1907021
NM-FA-W-SHF-LS-1907037
NM-FA-W-SHF-LS-1907044
NM-FA-W-SHF-LS-1907097
NM-FA-W-SHF-LS-1907110
NM-FA-W-SHF-LS-1907111
NM-FA-W-SHF-LS-1907113
NM-FA-W-SHF-LS-1907146
NM-FA-W-SHF-LS-1908034
NM-FA-W-SHF-LS-1908038
NM-FA-W-SHF-LS-1909028
NM-FA-W-SHF-LS-1909098
NM-FA-W-SHF-LS-1909099
NM-FA-W-SHF-LS-1909100
NM-FA-W-SHF-LS-1910001
NM-FA-W-SHF-LS-1910030
NM-FA-W-SHF-MS-1005060
NM-FA-W-SHF-MS-1006067
NM-FA-W-SHF-MS-1007041
NM-FA-W-SHF-MS-1104313
NM-FA-W-SHF-MS-1104380
NM-FA-W-SHF-MS-1106394
NM-FA-W-SHF-MS-1107033
NM-FA-W-SHF-MS-1806068
NM-FA-W-SHF-MS-1906066
NM-FA-W-SHF-MS-1907022
NM-FA-W-SHF-MS-1907023
NM-FA-W-SHF-MS-1907126
NM-FA-W-SHF-MS-1907141
NM-FA-W-SHF-MS-1907142
NM-FA-W-SHF-MS-1909096
NM-FA-W-SHF-NS-1004042
NM-FA-W-SHF-NS-1010030
NM-FA-W-SHF-NS-1104344
NM-FA-W-SHF-NS-1907127
NM-FA-W-SHF-NS-2009014
NM-FA-W-SHF-SS-1004038
NM-FA-W-SHF-SS-1004040
NM-FA-W-SHF-SS-1105033
NM-FA-W-SHF-SS-1106001
NM-FA-W-SHF-SS-1106383
NM-FA-W-SHF-SS-1305046
NM-FA-W-SHF-SS-1404024
NM-FA-W-SHF-SS-1404052
NM-FA-W-SHF-SS-1905120
NM-FA-W-SHF-SS-1905172
NM-FA-W-SHF-SS-1905173
NM-FA-W-SHF-SS-1906022
NM-FA-W-SHF-SS-1907038
NM-FA-W-SHF-SS-1907112
NM-FA-W-SHF-SS-1907125
NM-FA-W-SHF-SS-1907129
NM-FA-W-SHF-SS-1909026
NM-FA-W-SHF-SS-1910246
NM-FA-W-SHO-LS-1008041
NM-FA-W-SHP-LS-1104346
NM-FA-W-SHP-LS-1104347
NM-FA-W-SHP-LS-1104349
NM-FA-W-SHP-LS-1404028
NM-FA-W-SHP-MS-1108061
NM-FA-W-SHS-LS-1005008
NM-FA-W-SKB-MK-1005013
NM-FA-W-SKE-MK-1907121
NM-FA-W-SKF-LK-2002093
NM-FA-W-SKF-MK-1004034
NM-FA-W-SKF-MK-1008039
NM-FA-W-SKF-MK-1905115
NM-FA-W-SKF-MK-1907029
NM-FA-W-SKF-MK-2009013
NM-FA-W-SKF-MK-2010055
NM-FA-W-SKF-SK-1906082
NM-FA-W-SKF-SK-1906084
NM-FA-W-SKF-SK-1906085
NM-FA-W-SKF-SK-1907046
NM-FA-W-SKF-SP-1905195
NM-FA-W-SKF-SP-1905196
NM-FA-W-SKF-SP-1909037
NM-FA-W-SKK-SK-1106018
NM-FA-W-SOB-SE-1908036
NM-FA-W-SOB-SP-1905166
NM-FA-W-SOF-SE-1909071
NM-FA-W-SOF-SP-1105067
NM-FA-W-SOF-SP-1808049
NM-FA-W-SOF-SP-1904055
NM-FA-W-SOF-SP-1905198
NM-FA-W-SOF-SP-1906034
NM-FA-W-SOF-SP-1906083
NM-FA-W-SOF-SP-1907118
NM-FA-W-SOF-SP-1907119
NM-FA-W-SOF-SP-1910154
NM-FA-W-SOF-SP-2002069
NM-FA-W-SOK-SP-1105066
NM-FA-W-SOK-SP-1106017
NM-FA-W-SOS-SE-1909038
NM-FA-W-SOS-SE-1909041
NM-FA-W-SWB-LS-1902088
NM-FA-W-SWB-LS-1903111
NM-FA-W-SWB-LS-1903112
NM-FA-W-SWB-LS-1903113
NM-FA-W-SWB-LS-1903116
NM-FA-W-SWB-LS-1903117
NM-FA-W-SWB-LS-1904061
NM-FA-W-SWB-LS-1905009
NM-FA-W-SWB-LS-1905160
NM-FA-W-SWB-MS-1006031
NM-FA-W-SWB-SS-1006035
NM-FA-W-SWB-SS-1804141
NM-FA-W-SWB-SS-1805014
NM-FA-W-SWB-SS-1905010
NM-FA-W-SWB-SS-1905011
NM-FA-W-SWB-SS-1905012
NM-FA-W-SWB-SS-1905013
NM-FA-W-SWB-SS-1905014
NM-FA-W-SWF-LS-1104331
NM-FA-W-SWF-SS-1104330
NM-FA-W-SWO-MS-1006034
NM-FA-W-TSB-LS-1008050
NM-FA-W-TSB-LS-1105002
NM-FA-W-TSB-LS-1907107
NM-FA-W-TSB-LS-1907108
NM-FA-W-TSB-MS-1907109
NM-FA-W-TSB-SS-1006086
NM-FA-W-TSB-SS-1007034
NM-FA-W-TSB-SS-1007035
NM-FA-W-TSB-SS-2011024
NM-FA-W-TSF-LS-1104385
NM-FA-W-TSF-LS-1303059
NM-FA-W-TSF-LS-1403008
NM-FA-W-TSF-LS-1910066
NM-FA-W-TSF-LS-1910068
NM-FA-W-TSF-MS-1105035
NM-FA-W-TSF-MS-1505061
NM-FA-W-TSF-NS-1005018
NM-FA-W-TSF-NS-1104005
NM-FA-W-TSF-SS-1005019
NM-FA-W-TSF-SS-1104006
NM-FA-W-TSF-SS-1104008
NM-FA-W-TSF-SS-1104042
NM-FA-W-TSF-SS-1105052
NM-FA-W-TSF-SS-1604021
NM-FA-W-TSF-SS-1703088
NM-FA-W-TSF-SS-1806069
NM-FA-W-TSF-SS-1905083
NM-FA-W-TSF-SS-1905197
NM-FA-W-TSF-SS-1907114
NM-FA-W-TSF-SS-1907115
NM-FA-W-TSF-SS-1907116
NM-FA-W-TSF-SS-1907117
NM-FA-W-TSF-SS-1908003
NM-FA-W-TSF-SS-1908004
NM-FA-W-TSF-SS-1908005
NM-FA-W-TSF-SS-1908006
NM-FA-W-TSF-SS-1909063
NM-FA-W-TSF-SS-1909064
NM-FA-W-TSF-SS-1909065
NM-FA-W-TSF-SS-1909066
NM-FA-W-TSF-SS-1909067
NM-FA-W-TSF-SS-1909068
NM-FA-W-TSF-SS-1910026
NM-FA-W-TSF-SS-1910027
NM-FA-W-TSF-SS-1910028
NM-FA-W-TSF-SS-1910029
NM-FA-W-TSF-SS-1910067
NM-FA-W-TSO-SS-1006062
NM-FA-W-TSP-SS-2011014
NM-FA-W-TSP-SS-2011015
NM-FA-W-TSP-SS-2011016
NM-FA-W-TSP-SS-2011017
NM-FE-W-ACF-AC-1010005
NM-FE-W-ACF-AC-1010006
NM-FE-W-ACF-AC-1010007
NM-FE-W-ACF-AC-1010008
NM-FE-W-ACF-AC-1010009
NM-FE-W-ACF-AC-1010010
NM-FE-W-ARF-AC-1110168
NM-FE-W-ARF-AC-1110169
NM-FE-W-ARF-AC-1110179
NM-FE-W-ARF-AC-1110209
NM-FE-W-ARF-AC-1110213
NM-FE-W-BAF-AC-1108169
NM-FE-W-BAF-AC-1108170
NM-FE-W-BAF-AC-1112111
NM-FE-W-BAF-AC-1112112
NM-FE-W-BAF-AC-1112113
NM-FE-W-BAF-AC-1112114
NM-FE-W-BAF-AC-1112115
NM-FE-W-BAF-AC-1112116
NM-FE-W-BAF-AC-1112118
NM-FE-W-BAF-AC-1112119
NM-FE-W-BAF-AC-1112120
NM-FE-W-BAF-AC-1112121
NM-FE-W-BAF-AC-1112122
NM-FE-W-BAF-AC-1112124
NM-FE-W-BAF-AC-1112125
NM-FE-W-BAF-AC-1112126
NM-FE-W-BAF-AC-1112127
NM-FE-W-BLF-AC-1011096
NM-FE-W-BLF-AC-1011097
NM-FE-W-BLF-AC-1108356
NM-FE-W-BLF-AC-1108357
NM-FE-W-BLF-AC-1108358
NM-FE-W-BLF-AC-1108359
NM-FE-W-BLF-AC-1108363
NM-FE-W-CAF-CA-1009010
NM-FE-W-DEB-LP-1007007
NM-FE-W-DEB-LP-1007012
NM-FE-W-DEB-LP-1007013
NM-FE-W-DEB-LP-1009168
NM-FE-W-DEB-LP-1107024
NM-FE-W-DEB-LP-1810116
NM-FE-W-DEB-LP-1811102
NM-FE-W-DEB-LP-1811103
NM-FE-W-DEB-LP-1812089
NM-FE-W-DEB-LP-2011107
NM-FE-W-DEB-LP-2011108
NM-FE-W-DEF-LP-1007014
NM-FE-W-DEF-LP-1007043
NM-FE-W-DEF-LP-1009018
NM-FE-W-DEF-LP-1009022
NM-FE-W-DEF-LP-1009169
NM-FE-W-DEF-LP-1810117
NM-FE-W-DEF-LP-1810120
NM-FE-W-DEF-LP-2012001
NM-FE-W-DRB-SS-1005047
NM-FE-W-DRB-SS-1006074
NM-FE-W-DRB-SS-1010029
NM-FE-W-DRF-MS-1007031
NM-FE-W-DRF-MS-1008023
NM-FE-W-DRF-MS-1108279
NM-FE-W-DRF-MS-1209083
NM-FE-W-DRF-MS-1407032
NM-FE-W-DRF-MS-1808087
NM-FE-W-DRF-MS-1810017
NM-FE-W-DRF-MS-1811023
NM-FE-W-DRF-MS-1906059
NM-FE-W-DRF-MS-1906072
NM-FE-W-DRF-MS-1908045
NM-FE-W-DRF-MS-1909023
NM-FE-W-DRF-MS-1909024
NM-FE-W-DRF-MS-1909059
NM-FE-W-DRF-MS-1910245
NM-FE-W-DRF-MS-1910272
NM-FE-W-DRF-MS-2010016
NM-FE-W-DRF-NS-1007033
NM-FE-W-DRF-NS-1008007
NM-FE-W-DRF-NS-1008029
NM-FE-W-DRF-NS-1008036
NM-FE-W-DRF-NS-1008043
NM-FE-W-DRF-NS-1009005
NM-FE-W-DRF-NS-1009032
NM-FE-W-DRF-NS-1009163
NM-FE-W-DRF-NS-1009172
NM-FE-W-DRF-NS-1009173
NM-FE-W-DRF-NS-1009225
NM-FE-W-DRF-NS-1010237
NM-FE-W-DRF-NS-1104003
NM-FE-W-DRF-NS-1105055
NM-FE-W-DRF-NS-1106003
NM-FE-W-DRF-NS-1106287
NM-FE-W-DRF-NS-1107038
NM-FE-W-DRF-NS-1107077
NM-FE-W-DRF-NS-1109142
NM-FE-W-DRF-NS-1109146
NM-FE-W-DRF-NS-1110309
NM-FE-W-DRF-NS-1202014
NM-FE-W-DRF-NS-1207054
NM-FE-W-DRF-NS-1207055
NM-FE-W-DRF-NS-1208061
NM-FE-W-DRF-NS-1209043
NM-FE-W-DRF-NS-1407030
NM-FE-W-DRF-NS-1407034
NM-FE-W-DRF-NS-1907033
NM-FE-W-DRF-NS-2010017
NM-FE-W-DRF-NS-2010052
NM-FE-W-DRF-SS-1007040
NM-FE-W-DRF-SS-1008028
NM-FE-W-DRF-SS-1009004
NM-FE-W-DRF-SS-1009174
NM-FE-W-DRF-SS-1108123
NM-FE-W-DRF-SS-1109169
NM-FE-W-DRF-SS-1205158
NM-FE-W-DRF-SS-1206151
NM-FE-W-DRF-SS-1209040
NM-FE-W-DRF-SS-1407040
NM-FE-W-DRF-SS-1410061
NM-FE-W-DRF-SS-1411018
NM-FE-W-DRF-SS-1906057
NM-FE-W-DRF-SS-1907031
NM-FE-W-DRF-SS-1907036
NM-FE-W-DRF-SS-1908073
NM-FE-W-DRF-SS-1909025
NM-FE-W-DRF-SS-1909060
NM-FE-W-DRF-SS-1909084
NM-FE-W-DRF-SS-1909085
NM-FE-W-DRF-SS-1910046
NM-FE-W-DRF-SS-1910153
NM-FE-W-DRF-SS-1910269
NM-FE-W-DRF-SS-1910273
NM-FE-W-DRF-SS-2009015
NM-FE-W-DRF-SS-2010051
NM-FE-W-DRF-SS-2011018
NM-FE-W-DRL-NS-1207036
NM-FE-W-DRO-MS-1008027
NM-FE-W-DRO-MS-1104273
NM-FE-W-DRO-NS-1006002
NM-FE-W-DRO-NS-1006071
NM-FE-W-DRO-NS-1010015
NM-FE-W-DRO-NS-1010409
NM-FE-W-DRO-NS-1012242
NM-FE-W-DRO-NS-1012319
NM-FE-W-DRO-NS-1012388
NM-FE-W-DRO-NS-1104274
NM-FE-W-DRO-SS-1006028
NM-FE-W-DRO-SS-1008045
NM-FE-W-DRO-SS-1009175
NM-FE-W-DRO-SS-1010016
NM-FE-W-DRO-SS-1010122
NM-FE-W-DRO-SS-1011001
NM-FE-W-DRO-SS-1208037
NM-FE-W-ERF-AC-1110091
NM-FE-W-ERF-AC-1110093
NM-FE-W-ERF-AC-1110150
NM-FE-W-ERF-AC-1110215
NM-FE-W-ERF-AC-1110217
NM-FE-W-ERF-AC-1110218
NM-FE-W-HOE-AC-1112202
NM-FE-W-HOE-AC-1112203
NM-FE-W-HOE-AC-1112204
NM-FE-W-HOE-AC-1112205
NM-FE-W-HOE-AC-1112206
NM-FE-W-HOE-AC-1112207
NM-FE-W-HOE-AC-1112208
NM-FE-W-HOE-AC-1112209
NM-FE-W-HOE-AC-1112210
NM-FE-W-HOE-AC-1112211
NM-FE-W-HOE-AC-1112212
NM-FE-W-HOE-AC-1112213
NM-FE-W-HOE-AC-1112214
NM-FE-W-HOE-AC-1112215
NM-FE-W-HOE-AC-1112216
NM-FE-W-HOE-AC-1112217
NM-FE-W-HOE-AC-1112218
NM-FE-W-HOE-AC-1112219
NM-FE-W-JAF-SS-1008022
NM-FE-W-JAF-SS-1010252
NM-FE-W-JAI-LS-1005076
NM-FE-W-JAO-LS-1005020
NM-FE-W-JAO-LS-1005031
NM-FE-W-JAO-LS-1005033
NM-FE-W-JAO-LS-1006022
NM-FE-W-JAO-LS-1009226
NM-FE-W-JAO-LS-1010156
NM-FE-W-JAO-LS-1108028
NM-FE-W-JAW-LS-1706052
NM-FE-W-JAW-LS-1706060
NM-FE-W-JAW-LS-1708042
NM-FE-W-JAW-LS-1808092
NM-FE-W-JAW-LS-1808093
NM-FE-W-JAW-LS-1808094
NM-FE-W-JAW-LS-1905179
NM-FE-W-JAW-LS-1905180
NM-FE-W-JAW-LS-1906028
NM-FE-W-JAW-LS-1906029
NM-FE-W-JAW-LS-1906031
NM-FE-W-JAW-LS-1906032
NM-FE-W-JAW-LS-1906033
NM-FE-W-JAW-LS-1906038
NM-FE-W-JAW-LS-1906043
NM-FE-W-JAW-LS-1906044
NM-FE-W-JAW-LS-1907148
NM-FE-W-JUF-NS-1910114
NM-FE-W-NDB-LP-1007037
NM-FE-W-NDB-LP-1010232
NM-FE-W-NDB-LP-1909092
NM-FE-W-NDF-LP-1009012
NM-FE-W-NDF-LP-1010126
NM-FE-W-NDF-LP-1810029
NM-FE-W-NDF-LP-1810190
NM-FE-W-NDF-LP-1811087
NM-FE-W-NDF-LP-1909062
NM-FE-W-NDF-LP-1909088
NM-FE-W-NDF-LP-2009016
NM-FE-W-NKF-AC-1110183
NM-FE-W-NKF-AC-1110184
NM-FE-W-NKF-AC-1110193
NM-FE-W-NKF-AC-1110198
NM-FE-W-NKF-AC-1110204
NM-FE-W-NKF-AC-1110205
NM-FE-W-NKF-AC-1110206
NM-FE-W-SHB-LS-1005007
NM-FE-W-SHB-LS-1005059
NM-FE-W-SHB-LS-1909032
NM-FE-W-SHB-MS-1208077
NM-FE-W-SHF-LS-1106028
NM-FE-W-SHF-LS-1109031
NM-FE-W-SHF-LS-1109032
NM-FE-W-SHF-LS-1109033
NM-FE-W-SHF-LS-1109132
NM-FE-W-SHF-LS-1809021
NM-FE-W-SHF-LS-1810061
NM-FE-W-SHF-LS-1811003
NM-FE-W-SHF-LS-1909086
NM-FE-W-SHF-LS-1909090
NM-FE-W-SHF-LS-1909091
NM-FE-W-SHF-LS-2010019
NM-FE-W-SHF-MS-1106375
NM-FE-W-SHF-MS-1107130
NM-FE-W-SHF-MS-1710003
NM-FE-W-SHF-MS-1906065
NM-FE-W-SHF-MS-1907147
NM-FE-W-SHF-MS-1910018
NM-FE-W-SHF-MS-1910249
NM-FE-W-SHF-NS-1009028
NM-FE-W-SHF-NS-1009164
NM-FE-W-SHF-NS-1109034
NM-FE-W-SHF-NS-1909061
NM-FE-W-SHF-NS-1910247
NM-FE-W-SHF-NS-2011019
NM-FE-W-SHF-SS-1008046
NM-FE-W-SHF-SS-1008047
NM-FE-W-SHF-SS-1011240
NM-FE-W-SHF-SS-1011242
NM-FE-W-SHF-SS-1212060
NM-FE-W-SHF-SS-1308054
NM-FE-W-SHF-SS-1308057
NM-FE-W-SHF-SS-1409002
NM-FE-W-SHF-SS-1811096
NM-FE-W-SHF-SS-1909087
NM-FE-W-SHF-SS-1909089
NM-FE-W-SHF-SS-1910016
NM-FE-W-SHF-SS-1910017
NM-FE-W-SHF-SS-1910019
NM-FE-W-SHF-SS-1910248
NM-FE-W-SHF-SS-1910250
NM-FE-W-SHO-LS-1011223
NM-FE-W-SHO-NS-1008008
NM-FE-W-SHO-SS-1008009
NM-FE-W-SHP-LS-1106416
NM-FE-W-SHP-LS-1106417
NM-FE-W-SHP-LS-1106418
NM-FE-W-SHP-LS-1108413
NM-FE-W-SHP-LS-1109023
NM-FE-W-SHP-LS-1109209
NM-FE-W-SHP-LS-2111044
NM-FE-W-SHP-MS-1108062
NM-FE-W-SHP-NS-1108063
NM-FE-W-SHP-SS-1109208
NM-FE-W-SKE-SK-1810064
NM-FE-W-SKE-SK-1810077
NM-FE-W-SKF-MK-1010264
NM-FE-W-SKF-SK-1408013
NM-FE-W-SKF-SK-2010053
NM-FE-W-SKF-SS-1106286
NM-FE-W-SOB-SP-1006090
NM-FE-W-SOB-SP-1104195
NM-FE-W-SOF-SP-1809068
NM-FE-W-SOF-SP-1809069
NM-FE-W-SOF-SP-1811025
NM-FE-W-SOF-SP-2009018
NM-FE-W-SWF-LS-1010263
NM-FE-W-TSB-LS-1010157
NM-FE-W-TSB-LS-1010159
NM-FE-W-TSB-LS-1011013
NM-FE-W-TSB-LS-1107036
NM-FE-W-TSB-NS-1007038
NM-FE-W-TSB-NS-1205077
NM-FE-W-TSB-SS-1010400
NM-FE-W-TSB-SS-1206026
NM-FE-W-TSB-SS-1308046
NM-FE-W-TSB-SS-1310055
NM-FE-W-TSF-LS-1008030
NM-FE-W-TSF-LS-1008031
NM-FE-W-TSF-LS-1107035
NM-FE-W-TSF-MS-1010224
NM-FE-W-TSF-MS-1108147
NM-FE-W-TSF-NS-1009087
NM-FE-W-TSF-NS-1009093
NM-FE-W-TSF-NS-1009152
NM-FE-W-TSF-NS-1106103
NM-FE-W-TSF-NS-1205031
NM-FE-W-TSF-NS-1308013
NM-FE-W-TSF-NS-1407019
NM-FE-W-TSF-SS-1008015
NM-FE-W-TSF-SS-1008016
NM-FE-W-TSF-SS-1010251
NM-FE-W-TSF-SS-1011014
NM-FE-W-TSF-SS-1105016
NM-FE-W-TSF-SS-1105017
NM-FE-W-TSF-SS-1105054
NM-FE-W-TSF-SS-1106002
NM-FE-W-TSF-SS-1106019
NM-FE-W-TSF-SS-1106101
NM-FE-W-TSF-SS-1108033
NM-FE-W-TSF-SS-1108146
NM-FE-W-TSF-SS-1109028
NM-FE-W-TSF-SS-1110020
NM-FE-W-TSF-SS-1205078
NM-FE-W-TSF-SS-1209019
NM-FE-W-TSF-SS-1209020
NM-FE-W-TSF-SS-1209021
NM-FE-W-TSF-SS-1209084
NM-FE-W-TSF-SS-1308045
NM-FE-W-TSF-SS-1606048
NM-FE-W-TSF-SS-1808058
NM-FE-W-TSF-SS-1811015
NM-FE-W-TSF-SS-1910020
NM-FE-W-TSF-SS-1910022
NM-FE-W-TSF-SS-1910282
NM-FE-W-TSF-SS-1910283
NM-FE-W-TSF-SS-1910284
NM-FE-W-TSF-SS-1910285
NM-FE-W-TSF-SS-1910286
NM-FE-W-TSF-SS-1910287
NM-FE-W-TSF-SS-1910288
NM-FE-W-TSF-SS-1911040
NM-FE-W-TSF-SS-1911042
NM-FE-W-TSF-SS-2011054
NM-FE-W-TSG-SS-1912040
NM-FE-W-TSG-SS-1912041
NM-FE-W-TSG-SS-1912042
NM-FE-W-TSG-SS-1912043
NM-FE-W-TSG-SS-2111072
NM-FE-W-TSG-SS-2111073
NM-FE-W-TSG-SS-2111074
NM-FE-W-TSG-SS-2111075
NM-FE-W-TSO-NS-1008006
NM-FE-W-TSO-SS-1006080
NM-FE-W-TSO-SS-1006081
NM-FE-W-TSP-SS-1209079
NM-FE-W-TSP-SS-2012023
NM-FE-W-TSP-SS-2012024
NM-FE-W-TSP-SS-2012025
NM-FE-W-TSP-SS-2012026
NM-FE-W-TSP-SS-2012027
NM-FE-W-TSS-SS-1208084
NM-FF-W-DRE-SS-1203086
NM-FF-W-SHF-LS-1203155
NM-FF-W-SHF-SS-1203159
NM-FF-W-TSF-SS-1203035
NM-FF-W-TSF-SS-1204009
NMLIM-FA-W-DRF-NS-1709094
NMLIM-FA-W-DRF-SS-1704048
NMLIM-FA-W-DRF-SS-1707042
NMLIM-FE-W-ADF-MS-1711016
NMLIM-FE-W-DRF-LS-1904010
NMLIM-FE-W-DRF-MS-1710013
NMLIM-FE-W-DRF-MS-2010015
NMLIM-FE-W-DRF-NS-1707076
NMLIM-FE-W-DRF-SS-1705064
NMLIM-FE-W-JAF-LS-1609108
NMLIM-FE-W-JAW-LS-1706053
NMLIM-FE-W-JAW-LS-1706061
NMLIM-FE-W-JAW-LS-1706068
NMLIM-FE-W-JAW-LS-1708041
NMLIM-FE-W-NDF-LP-1801001
NMLIM-FE-W-SHF-NS-1606060
NMLIM-FE-W-SKF-MK-2010020
NMLIM-SU-W-DRF-NS-1701014
NMLIM-SU-W-DRF-NS-1805006
NMLIM-SU-W-SHF-LS-1903010
NMLIM-SU-W-SHF-SS-1903077
NMLIM-SU-W-SHS-LS-1701013
NM-SS-W-DRF-NS-1111037
NM-SS-W-DRF-NS-1111038
NM-SS-W-DRF-SS-1202013
NM-SS-W-DRF-SS-1203090
NM-SS-W-SHF-LS-1110314
NM-SS-W-SHF-LS-1203038
NM-SS-W-SHF-SS-1110312
NM-SS-W-SHF-SS-1112142
NM-SS-W-SOF-SP-1111045
NM-SS-W-TSF-NS-1112223
NM-SS-W-TSF-SS-1110315
NM-SS-W-TSF-SS-1111059
NM-SS-W-TSF-SS-1111060
NM-SS-W-TSF-SS-1112141
NM-SU-W-ACC-AC-1103270
NM-SU-W-ACC-AC-1103272
NM-SU-W-ACC-AC-1103273
NM-SU-W-ACC-AC-1103274
NM-SU-W-ACC-AC-1103275
NM-SU-W-ACC-AC-1103277
NM-SU-W-ACC-AC-1103278
NM-SU-W-ACC-AC-1103279
NM-SU-W-ACC-AC-1103280
NM-SU-W-ACC-AC-1103282
NM-SU-W-ACC-AC-1103284
NM-SU-W-ACC-AC-1104143
NM-SU-W-ACC-AC-1104144
NM-SU-W-ACC-AC-1104145
NM-SU-W-ACC-AC-1104146
NM-SU-W-ACC-AC-1104147
NM-SU-W-ACC-AC-1104148
NM-SU-W-ACC-AC-1104149
NM-SU-W-ACC-AC-1104150
NM-SU-W-ACC-AC-1104151
NM-SU-W-ACC-AC-1104152
NM-SU-W-ACC-AC-1104153
NM-SU-W-ACC-AC-1104154
NM-SU-W-ACC-AC-1104155
NM-SU-W-ACC-AC-1104156
NM-SU-W-ACC-AC-1104157
NM-SU-W-ACC-AC-1104158
NM-SU-W-ACC-AC-1104159
NM-SU-W-ACC-AC-1104160
NM-SU-W-ACC-AC-1104161
NM-SU-W-ACC-AC-1104162
NM-SU-W-ACC-AC-1104163
NM-SU-W-BAF-AC-1104055
NM-SU-W-BLF-AC-1103286
NM-SU-W-BLF-AC-1103287
NM-SU-W-BLF-AC-1103288
NM-SU-W-BLF-AC-1103289
NM-SU-W-BLF-AC-1103290
NM-SU-W-BLF-AC-1103292
NM-SU-W-BLF-AC-1103293
NM-SU-W-BLF-AC-1103294
NM-SU-W-BLF-AC-1103295
NM-SU-W-BLF-AC-1103297
NM-SU-W-BLF-AC-1103298
NM-SU-W-BLF-SE-2103007
NM-SU-W-BLI-LS-2103055
NM-SU-W-BLI-LS-2103056
NM-SU-W-BOI-NS-2104026
NM-SU-W-BOI-SS-2103058
NM-SU-W-BOI-SS-2104070
NM-SU-W-BOP-NS-2103057
NM-SU-W-CAF-CP-1012403
NM-SU-W-DEB-LP-1011062
NM-SU-W-DEB-LP-1901076
NM-SU-W-DEB-LP-1912076
NM-SU-W-DEB-LP-1912078
NM-SU-W-DEB-LP-1912086
NM-SU-W-DEF-LP-1007015
NM-SU-W-DEF-LP-1012097
NM-SU-W-DEF-LP-1912079
NM-SU-W-DRB-MS-1012234
NM-SU-W-DRE-MF-2104096
NM-SU-W-DRE-MS-1810062
NM-SU-W-DRE-MS-2012052
NM-SU-W-DRE-MS-2101067
NM-SU-W-DRE-MS-2103021
NM-SU-W-DRE-NS-2103022
NM-SU-W-DRE-SF-2104095
NM-SU-W-DRE-SS-2012044
NM-SU-W-DRE-SS-2012045
NM-SU-W-DRE-SS-2012049
NM-SU-W-DRE-SS-2012050
NM-SU-W-DRF-LS-1901057
NM-SU-W-DRF-LS-1903016
NM-SU-W-DRF-LS-1904028
NM-SU-W-DRF-LS-1912023
NM-SU-W-DRF-LS-2002023
NM-SU-W-DRF-LS-2002060
NM-SU-W-DRF-LS-2012048
NM-SU-W-DRF-LS-2103011
NM-SU-W-DRF-LS-2103013
NM-SU-W-DRF-MF-2104094
NM-SU-W-DRF-MS-1011262
NM-SU-W-DRF-MS-1901038
NM-SU-W-DRF-MS-1901047
NM-SU-W-DRF-MS-1902104
NM-SU-W-DRF-MS-1905164
NM-SU-W-DRF-MS-1910266
NM-SU-W-DRF-MS-1910271
NM-SU-W-DRF-MS-1912035
NM-SU-W-DRF-NS-1004004
NM-SU-W-DRF-NS-1011260
NM-SU-W-DRF-NS-1011291
NM-SU-W-DRF-NS-1101016
NM-SU-W-DRF-NS-1101019
NM-SU-W-DRF-NS-1101034
NM-SU-W-DRF-NS-1101035
NM-SU-W-DRF-NS-1211054
NM-SU-W-DRF-NS-1211059
NM-SU-W-DRF-NS-1212023
NM-SU-W-DRF-NS-1310061
NM-SU-W-DRF-NS-1312022
NM-SU-W-DRF-NS-1804104
NM-SU-W-DRF-NS-1809020
NM-SU-W-DRF-NS-1901018
NM-SU-W-DRF-NS-1901058
NM-SU-W-DRF-NS-1902004
NM-SU-W-DRF-NS-1903015
NM-SU-W-DRF-NS-1903042
NM-SU-W-DRF-NS-1904009
NM-SU-W-DRF-NS-1904056
NM-SU-W-DRF-NS-1905162
NM-SU-W-DRF-NS-1905165
NM-SU-W-DRF-NS-1909082
NM-SU-W-DRF-NS-1910268
NM-SU-W-DRF-NS-2002012
NM-SU-W-DRF-NS-2002058
NM-SU-W-DRF-NS-2005004
NM-SU-W-DRF-NS-2101063
NM-SU-W-DRF-NS-2103035
NM-SU-W-DRF-SS-1005072
NM-SU-W-DRF-SS-1805074
NM-SU-W-DRF-SS-1812100
NM-SU-W-DRF-SS-1812110
NM-SU-W-DRF-SS-1901006
NM-SU-W-DRF-SS-1903011
NM-SU-W-DRF-SS-1905163
NM-SU-W-DRF-SS-1905225
NM-SU-W-DRF-SS-1910267
NM-SU-W-DRF-SS-1911045
NM-SU-W-DRF-SS-1912021
NM-SU-W-DRF-SS-1912022
NM-SU-W-DRF-SS-1912031
NM-SU-W-DRF-SS-1912032
NM-SU-W-DRF-SS-1912033
NM-SU-W-DRF-SS-1912034
NM-SU-W-DRF-SS-2002007
NM-SU-W-DRF-SS-2002008
NM-SU-W-DRF-SS-2002059
NM-SU-W-DRF-SS-2003106
NM-SU-W-DRF-SS-2003171
NM-SU-W-DRF-SS-2005003
NM-SU-W-DRF-SS-2005005
NM-SU-W-DRF-SS-2012046
NM-SU-W-DRF-SS-2101038
NM-SU-W-DRF-SS-2101061
NM-SU-W-DRF-SS-2103010
NM-SU-W-DRF-SS-2103012
NM-SU-W-DRF-SS-2103024
NM-SU-W-DRO-MS-1103264
NM-SU-W-DRO-MS-1404012
NM-SU-W-DRO-SS-1012406
NM-SU-W-JUF-LF-2104075
NM-SU-W-JUF-LS-1903002
NM-SU-W-JUF-NS-1901036
NM-SU-W-JUF-SF-2104079
NM-SU-W-JUF-SS-2003002
NM-SU-W-NDB-LP-1011064
NM-SU-W-NDB-LP-1011065
NM-SU-W-NDB-LP-1810075
NM-SU-W-NDB-LP-2002053
NM-SU-W-NDB-LP-2002054
NM-SU-W-NDE-LP-1810065
NM-SU-W-NDE-LP-1810066
NM-SU-W-NDE-LP-1811086
NM-SU-W-NDE-LP-2001012
NM-SU-W-NDE-LP-2003003
NM-SU-W-NDE-LP-2003004
NM-SU-W-NDE-LP-2012057
NM-SU-W-NDF-CP-1811001
NM-SU-W-NDF-CP-1902003
NM-SU-W-NDF-CP-1904041
NM-SU-W-NDF-LP-1104377
NM-SU-W-NDF-LP-1806053
NM-SU-W-NDF-LP-1810074
NM-SU-W-NDF-LP-1812156
NM-SU-W-NDF-LP-1902076
NM-SU-W-NDF-LP-1904001
NM-SU-W-NDF-LP-2002013
NM-SU-W-NDF-LP-2002015
NM-SU-W-NDF-LP-2003161
NM-SU-W-NDF-LP-2101039
NM-SU-W-NDF-LP-2101040
NM-SU-W-NDF-LP-2101041
NM-SU-W-NDF-LP-2103034
NM-SU-W-NDT-LP-2103037
NM-SU-W-SEF-MF-2104123
NM-SU-W-SEF-MF-2105001
NM-SU-W-SEF-NS-2002006
NM-SU-W-SEF-NS-2002024
NM-SU-W-SEF-NS-2101069
NM-SU-W-SEF-SF-2103059
NM-SU-W-SEF-SF-2104077
NM-SU-W-SHB-LS-1005006
NM-SU-W-SHB-LS-1012435
NM-SU-W-SHB-LS-1012436
NM-SU-W-SHB-LS-1101044
NM-SU-W-SHB-LS-1811080
NM-SU-W-SHB-LS-1812198
NM-SU-W-SHB-LS-1903053
NM-SU-W-SHB-LS-1905168
NM-SU-W-SHB-LS-2002001
NM-SU-W-SHB-LS-2002025
NM-SU-W-SHB-SS-1011238
NM-SU-W-SHB-SS-1903040
NM-SU-W-SHB-SS-2002002
NM-SU-W-SHE-MS-2103018
NM-SU-W-SHE-NS-2012053
NM-SU-W-SHE-NS-2012054
NM-SU-W-SHE-NS-2012060
NM-SU-W-SHE-SS-2012063
NM-SU-W-SHF-LS-1011251
NM-SU-W-SHF-LS-1012295
NM-SU-W-SHF-LS-1311060
NM-SU-W-SHF-LS-1811021
NM-SU-W-SHF-LS-1812032
NM-SU-W-SHF-LS-1902001
NM-SU-W-SHF-LS-1903012
NM-SU-W-SHF-LS-1903051
NM-SU-W-SHF-LS-1903052
NM-SU-W-SHF-LS-1903054
NM-SU-W-SHF-LS-1903056
NM-SU-W-SHF-LS-1903057
NM-SU-W-SHF-LS-1903076
NM-SU-W-SHF-LS-1903078
NM-SU-W-SHF-LS-1904002
NM-SU-W-SHF-LS-1904003
NM-SU-W-SHF-LS-1904004
NM-SU-W-SHF-LS-1904005
NM-SU-W-SHF-LS-1905123
NM-SU-W-SHF-LS-1905124
NM-SU-W-SHF-LS-1905125
NM-SU-W-SHF-LS-1911046
NM-SU-W-SHF-LS-1912027
NM-SU-W-SHF-LS-1912028
NM-SU-W-SHF-LS-1912036
NM-SU-W-SHF-LS-1912099
NM-SU-W-SHF-LS-1912100
NM-SU-W-SHF-LS-2002047
NM-SU-W-SHF-LS-2002057
NM-SU-W-SHF-LS-2002063
NM-SU-W-SHF-LS-2002064
NM-SU-W-SHF-LS-2003005
NM-SU-W-SHF-LS-2003168
NM-SU-W-SHF-LS-2005025
NM-SU-W-SHF-LS-2005026
NM-SU-W-SHF-LS-2005027
NM-SU-W-SHF-LS-2012075
NM-SU-W-SHF-LS-2104092
NM-SU-W-SHF-MS-1011243
NM-SU-W-SHF-MS-1011284
NM-SU-W-SHF-MS-1011286
NM-SU-W-SHF-MS-1011287
NM-SU-W-SHF-MS-1101032
NM-SU-W-SHF-MS-1104043
NM-SU-W-SHF-MS-1104378
NM-SU-W-SHF-MS-1211056
NM-SU-W-SHF-MS-1804105
NM-SU-W-SHF-MS-1810071
NM-SU-W-SHF-MS-1811077
NM-SU-W-SHF-MS-1901052
NM-SU-W-SHF-MS-1902013
NM-SU-W-SHF-MS-1902044
NM-SU-W-SHF-MS-1903075
NM-SU-W-SHF-MS-1905217
NM-SU-W-SHF-MS-1911039
NM-SU-W-SHF-MS-1912037
NM-SU-W-SHF-MS-2002009
NM-SU-W-SHF-MS-2002010
NM-SU-W-SHF-NS-1004037
NM-SU-W-SHF-NS-1012335
NM-SU-W-SHF-NS-1101047
NM-SU-W-SHF-NS-1101050
NM-SU-W-SHF-NS-1103015
NM-SU-W-SHF-NS-1602002
NM-SU-W-SHF-NS-1901042
NM-SU-W-SHF-NS-1902102
NM-SU-W-SHF-NS-1905167
NM-SU-W-SHF-NS-2002004
NM-SU-W-SHF-NS-2002046
NM-SU-W-SHF-NS-2012072
NM-SU-W-SHF-NS-2103019
NM-SU-W-SHF-NS-2103031
NM-SU-W-SHF-NS-2103032
NM-SU-W-SHF-SS-1101046
NM-SU-W-SHF-SS-1210112
NM-SU-W-SHF-SS-1308024
NM-SU-W-SHF-SS-1311072
NM-SU-W-SHF-SS-1311075
NM-SU-W-SHF-SS-1404047
NM-SU-W-SHF-SS-1411087
NM-SU-W-SHF-SS-1411099
NM-SU-W-SHF-SS-1412015
NM-SU-W-SHF-SS-1412059
NM-SU-W-SHF-SS-1702071
NM-SU-W-SHF-SS-1804072
NM-SU-W-SHF-SS-1804103
NM-SU-W-SHF-SS-1810067
NM-SU-W-SHF-SS-1810068
NM-SU-W-SHF-SS-1810069
NM-SU-W-SHF-SS-1811020
NM-SU-W-SHF-SS-1901007
NM-SU-W-SHF-SS-1901040
NM-SU-W-SHF-SS-1901041
NM-SU-W-SHF-SS-1901050
NM-SU-W-SHF-SS-1901053
NM-SU-W-SHF-SS-1901056
NM-SU-W-SHF-SS-1902012
NM-SU-W-SHF-SS-1902042
NM-SU-W-SHF-SS-1903058
NM-SU-W-SHF-SS-1904022
NM-SU-W-SHF-SS-1905122
NM-SU-W-SHF-SS-1905216
NM-SU-W-SHF-SS-1912096
NM-SU-W-SHF-SS-2002003
NM-SU-W-SHF-SS-2002014
NM-SU-W-SHF-SS-2002027
NM-SU-W-SHF-SS-2002056
NM-SU-W-SHF-SS-2003149
NM-SU-W-SHF-SS-2003160
NM-SU-W-SHF-SS-2005028
NM-SU-W-SHF-SS-2103033
NM-SU-W-SHF-SS-2103038
NM-SU-W-SHF-SS-2104117
NM-SU-W-SHO-NS-1012389
NM-SU-W-SHO-SS-1012378
NM-SU-W-SHP-LS-1308039
NM-SU-W-SHP-NS-1211035
NM-SU-W-SHS-LS-1902049
NM-SU-W-SHS-LS-2003001
NM-SU-W-SHT-NS-2103036
NM-SU-W-SKE-MK-1812093
NM-SU-W-SKE-MK-1901048
NM-SU-W-SKE-MK-2012059
NM-SU-W-SKE-SK-1810063
NM-SU-W-SKF-LK-2002099
NM-SU-W-SKF-LK-2101065
NM-SU-W-SKF-MK-1901017
NM-SU-W-SKF-MK-1902041
NM-SU-W-SKF-MK-1902092
NM-SU-W-SKF-SK-1810146
NM-SU-W-SKF-SK-1811013
NM-SU-W-SKF-SK-2002021
NM-SU-W-SKF-SK-2002022
NM-SU-W-SKF-SP-1903001
NM-SU-W-SKO-SK-1403028
NM-SU-W-SOB-SP-1005005
NM-SU-W-SOB-SP-1010269
NM-SU-W-SOB-SP-1010270
NM-SU-W-SOB-SP-1012417
NM-SU-W-SOB-SP-1810180
NM-SU-W-SOB-SP-1810181
NM-SU-W-SOB-SP-1811075
NM-SU-W-SOB-SP-2002011
NM-SU-W-SOB-SP-2002016
NM-SU-W-SOD-SP-1907102
NM-SU-W-SOD-SP-2002018
NM-SU-W-SOE-SP-2001019
NM-SU-W-SOE-SP-2101066
NM-SU-W-SOF-SE-2103008
NM-SU-W-SOF-SP-1011279
NM-SU-W-SOF-SP-1212010
NM-SU-W-SOF-SP-1810058
NM-SU-W-SOF-SP-1810059
NM-SU-W-SOF-SP-1810149
NM-SU-W-SOF-SP-1810184
NM-SU-W-SOF-SP-1810185
NM-SU-W-SOF-SP-1901035
NM-SU-W-SOF-SP-1902015
NM-SU-W-SOF-SP-1909069
NM-SU-W-SOF-SP-1911043
NM-SU-W-SOF-SP-2002019
NM-SU-W-SOF-SP-2002020
NM-SU-W-SOF-SP-2009017
NM-SU-W-SOF-SP-2101064
NM-SU-W-SOP-SP-1012414
NM-SU-W-SOP-SP-1101007
NM-SU-W-SOP-SP-1101008
NM-SU-W-SUO-NS-1005011
NM-SU-W-TRF-OF-2104076
NM-SU-W-TSB-NS-1012299
NM-SU-W-TSB-NS-1012301
NM-SU-W-TSB-SS-1005026
NM-SU-W-TSF-MS-1102080
NM-SU-W-TSF-NS-1103057
NM-SU-W-TSF-NS-1211061
NM-SU-W-TSF-SS-1101180
NM-SU-W-TSF-SS-1211025
NM-SU-W-TSF-SS-1308050
NM-SU-W-TSF-SS-1902107
NM-SU-W-TSF-SS-1902108
NM-SU-W-TSF-SS-1902109
NM-SU-W-TSF-SS-1903023
NM-SU-W-TSF-SS-1904043
NM-SU-W-TSF-SS-1904044
NM-SU-W-TSF-SS-1904045
NM-SU-W-TSF-SS-1904046
NM-SU-W-TSF-SS-1905072
NM-SU-W-TSF-SS-1905073
NM-SU-W-TSF-SS-1905074
NM-SU-W-TSF-SS-1905076
NM-SU-W-TSF-SS-1905077
NM-SU-W-TSF-SS-1905078
NM-SU-W-TSF-SS-1905079
NM-SU-W-TSF-SS-1905080
NM-SU-W-TSF-SS-1905081
NM-SU-W-TSF-SS-1905082
NM-SU-W-TSF-SS-2002028
NM-SU-W-TSF-SS-2002029
NM-SU-W-TSF-SS-2002030
NM-SU-W-TSF-SS-2002067
NM-SU-W-TSF-SS-2002068
NM-SU-W-TSF-SS-2002094
NM-SU-W-TSF-SS-2002095
NM-SU-W-TSF-SS-2003088
NM-SU-W-TSF-SS-2003089
NM-SU-W-TSF-SS-2003090
NM-SU-W-TSF-SS-2003091
NM-SU-W-TSF-SS-2003092
NM-SU-W-TSF-SS-2104085
NM-SU-W-TSF-SS-2104086
NM-SU-W-TSG-SS-1008201
NM-SU-W-TSG-SS-1008204
NM-SU-W-TSG-SS-1008209
NM-SU-W-TSG-SS-1008210
NM-SU-W-TSG-SS-1008211
NM-SU-W-TSG-SS-1008213
NM-SU-W-TSG-SS-1008216
NM-SU-W-TSG-SS-2104081
NM-SU-W-TSG-SS-2104082
NM-SU-W-TSG-SS-2104083
NM-SU-W-TSG-SS-2104084
NM-SU-W-TSP-NS-1212027
SS-FA-W-SHF-MS-2009004
SS-FA-W-SHF-NS-2008020
SS-FA-W-TSF-LS-2110011
SS-FA-W-TSF-NS-2008024
SS-FA-W-TSF-NS-2008025
SS-FA-W-TSF-SS-2008034
SS-FA-W-TSF-SS-2110014
SS-FE-W-DRF-NS-2011042
SS-FE-W-DRF-NS-2011045
SS-FE-W-DRF-SS-2011046
SS-FE-W-SER-NS-2011044
SS-FE-W-SER-SS-2011043
SS-FE-W-SHF-LS-2011020
SS-FE-W-SHF-LS-2011022
SS-FE-W-TSB-SS-2011026
SS-FE-W-TSF-LS-2011021
SS-FE-W-TSF-NS-2011023
SS-SU-W-DRF-NS-2101035
SS-SU-W-DRF-NS-2101091
SS-SU-W-DRF-SF-2105006
SS-SU-W-DRF-SS-2101093
SS-SU-W-NDF-LP-1911108
SS-SU-W-OVF-SP-2002070
SS-SU-W-SER-SS-1912048
SS-SU-W-SHF-LS-1911093
SS-SU-W-SHF-LS-1911106
SS-SU-W-SHF-LS-2002098
SS-SU-W-SHF-MS-2002061
SS-SU-W-SHF-SS-1911107
SS-SU-W-SHF-SS-2103027
SS-SU-W-SKF-SK-2003153
SS-SU-W-SKF-SK-2012061
SS-SU-W-SKF-SK-2101036
SS-SU-W-SKS-SK-1911105
SS-SU-W-SOS-SP-1911110
SS-SU-W-TSB-SS-2003150
SS-SU-W-TSB-SS-2003151
SS-SU-W-TSB-SS-2003152
SS-SU-W-TSB-SS-2104069
SS-SU-W-TSB-SS-2105003
SS-SU-W-TSF-LS-2103020
SS-SU-W-TSF-LS-2103052
SS-SU-W-TSF-SS-1911111
SS-SU-W-TSF-SS-2101034
SS-SU-W-TSF-SS-2103028
SS-SU-W-TSF-SS-2103029
SS-SU-W-TSF-SS-2103051
SS-SU-W-TSF-SS-2105002